<?xml version="1.0" encoding="UTF-8" standalone="no"?>
<!-- Created with Inkscape (http://www.inkscape.org/) -->

<svg
   width="105.12778mm"
   height="61.736111mm"
   viewBox="0 0 105.12778 61.736111"
   version="1.1"
   id="svg5"
   xml:space="preserve"
   sodipodi:docname="logo_insarviz.svg"
   inkscape:version="1.2.2 (b0a8486541, 2022-12-01)"
   xmlns:inkscape="http://www.inkscape.org/namespaces/inkscape"
   xmlns:sodipodi="http://sodipodi.sourceforge.net/DTD/sodipodi-0.dtd"
   xmlns:xlink="http://www.w3.org/1999/xlink"
   xmlns="http://www.w3.org/2000/svg"
   xmlns:svg="http://www.w3.org/2000/svg"><sodipodi:namedview
     id="namedview6"
     pagecolor="#ffffff"
     bordercolor="#666666"
     borderopacity="1.0"
     inkscape:showpageshadow="2"
     inkscape:pageopacity="0.0"
     inkscape:pagecheckerboard="0"
     inkscape:deskcolor="#d1d1d1"
     inkscape:document-units="mm"
     showgrid="false"
     inkscape:zoom="3.5637584"
     inkscape:cx="171.86911"
     inkscape:cy="116.871"
     inkscape:window-width="3836"
     inkscape:window-height="2116"
     inkscape:window-x="1920"
     inkscape:window-y="20"
     inkscape:window-maximized="1"
     inkscape:current-layer="svg5" /><defs
     id="defs2" /><rect
     style="fill:#ffffff;stroke-width:0.664898;stroke-linejoin:round"
     id="rect344"
     width="105.43752"
     height="61.637154"
     x="-0.22568282"
     y="0.12171844" /><g
     id="layer1"
     transform="translate(-56.410447,-44.918978)"><image
       width="105.12778"
       height="61.736111"
       preserveAspectRatio="none"
       style="image-rendering:optimizeQuality"
       xlink:href="data:image/png;base64,iVBORw0KGgoAAAANSUhEUgAAASoAAACvCAQAAADgOVt7AAAjmHpUWHRSYXcgcHJvZmlsZSB0eXBl IGV4aWYAAHja1ZxZclw5kkX/sYpeAibHsByMZr2DXn6fiyDVSpWyTGVVPy2mGFQw4j0A7n4HByLd +Z//vu6/+NOSLy5bbaWX4vmTe+5x8EPznz/jfQ8+v+/vD78PX8/+5Xk37tebIk8lHtPnn618HsP3 819v+H4MuqD9dKG2vn4x//qLnr+u33650NeNkkYU+WF/Xah/XSjFzy/C1wXGZ1q+9FZ/nsI8n8ev 93+Wgb9O31J91/5xkV//nSurt40nU4wnheT5HlP8DCC9vy4NfhH47lPhhSFVfo6p8D2l8jUSFuR3 6+R/GpX7NSo/fvolKr38Pijc7L3C8cRfF7P8ePzt88F+v/juLfFPd07r66f4y/M+3F+n8/333t3c veczu5ELS1q+JvU9xfcTL5wseXpvK3xV/ho/1/fV+WqO7F1EZ/vlJ18r9BAJyw057DDCDec9rrAY Yo4nVh5jXDG951qqscelqIWU9RVurKmnnRoxW4Q38Wz8MZbw7tvf7VZo3HgHXhkDFwtKBadv/4mv v73QvUr5ELSY/RNixhWVhAxDkdN3XkVAFIZPHtlb4O+vX/8orokI2lvmxgSHn59LTAtfuaU8Si/Q iRcaj5+yCHV/XYAl4t7GYKiAHHwJyUIJvsZYQ2AdG/EZXKjFlOMkBMEsbkYZM7VBcFrUvXlPDe+1 0eLnaTCLQBhlVAlNT4NYZYCN/Km5kUPDkmUzK1atWbdRUsnFSim1CPxGTTVXq6XW2mqvo6WWm7XS amuu9TZ67AlwtF567a33PgY3HVx58O7BC8aYcaaZp80y62yzz7FIn5WXrbLqam71NXbcaYMTu+y6 2+57nHBIpZOPnXLqaaefcUm1m26+dsutt91+x4+oBfcJ6z98/XnUwnfU4ouUXlh/RI231vp9iSA4 McWMiMUciHhVBEjoqJj5FnKOTqFTzHyPVIVFRmkKzg6KGBHMJ0S74Ufs/i9yf4mby/nfilv8jpxT 6P4TkXMK3d9E7h/j9puobbHN8sm9CKkMtag+UX684LQR2xCp/fGj+1ff8P/2Qn2HVW7KrfPY1o2J NOZPitb6EWEQxF34MYQygINJXpYe73TxQrAl86awW82ntlNJl4WesEiEjTjH2RTw2bhcrHkVgmg5 jjU7Odp95cIuh8GryrjVfJ8rzxO3zbG5H5G0xQ0W5XJ82QGJs0ff0ESz8B5OmbvclcJ1ftYV7iA5 Sa5yz41nnOxX7uAdBWJzFrKJWs1c7SLGPCPmFx6iGlAKqNB7KA5eIssj3HZ8rWdmflPzLmmhLNAh lyWwsU8fZ54ebQszb+vJjt0TufSqt5Tsxrp+791Xo3j8DBvqK3X01FY4IHatBOFUEv5Qb2FQhAWe gzIJCXfflo5W1dWQZyHn097rdG8TOM87pc5Maxioy3JReauPylqFWguIknMvVDUIHy0HxcI7qu8C Q1Z2TifNG6DZYPVOaqxbqCMjmMYa/d66iBvFxhBX6zfPnSNF2eFxivaMWC1wgx4DN0uHkEIn01gq VnxQ+wyvn8MQwshoszz2WLl51Af60JIHP6o5os4ACP02QAkoQtYcSPagRgkH2LNqLqyEpVzr9DsV AgvsndCJARqTNL4AWws2zN+2weBbztTVF4MOh/Tj3TYBDPKrl6WMn/WGuWZiHJrF2TF026t5F0DA vj1RAk6Ivg+tV9XBtbYBqaGQ2tpzo108KNxLBFBTP9J0jMomL7vmGCvIuedByoxd11qHW59Q8t5t lUoNrGvh9l3LHGQxtyWvSryR/9bxcyh83UHE5A5DBdOrHwBitMNatBvaavylCmrKQzk4gh2qshoZ rEgZs8zGD74uN1pmqHBNpOZu79BCaZTvvK8KFIA6lw0cC+Okpvua0/pYLB9oTSVTRhHK7oD2oJJi areMcYgBAwk9Umx6OcVyPNm+J+8DoO0CxUB+IprNRjaiBlg0plZ7mKzeTrGS0W8Y3ETk05nLJd3f +rEGbWxqkZcTWaoX4QoyxJEP9O/iLBQegADVFCI3HsjxOLdnjmPYRjnN+vKnlDgnWLb8on7OXKQb rDgZgDuUTzvEZcdyc4EmPbeYFR0BLwNtQESGzbwtpchEE0/GjKepIdYVhQB+WHOHiXZGgMi+k4VZ /i6YsMwz2raa77wgEyV1iXuhGqmvMFMUmDGscy4rToQcv/LLWPCLerCQLfyzRxCNCitN/MxQC2kf F3HLx/k8BRmBoM2Rla91I/8mxMpSpbm2AaVarFOyRlpYJQIwM/kAg/d2yLynatMpgcGCdD71SAKx Gowx3goawtMDWKH6IfVKYMZBVwzEDVmLvkH+LVBvRtYIeNnoppbJKGrhSumLZ/RTIwZ6vMGQCjcU EjKgf0DK1hK6BVyfKKYKHclcaySBu/ITOFDIqR4An2pZFXAY6+M24pG1VFdCBJpaXQttCTRYrmXU 0qLG2j2lIGUO7DavtzMB2oWeKbGBzKHniRgD8Yun1Dx3I6GBy9NFBtmB84+3KGJgW/alQAG2QAcQ tgElNeZzOgJO0gakIt44JMqO/IcZWAQCuR3ZkGahcHcuKKICOkkfihFq4tX1Yq4ooQlddQwRAIxz 2hmGKWFjulmSMcdxD7luajZfbYBHMeDP5wSsqMFw9vnkMWoqJMqmtKjVYyQbh8YirAx0UP0BlAYr 4djc6oVEBwhSWx5QCvHqEAqOQpVBBO5quijoSvw1dEgxw7EzudAa79ZboNLQKyquwmQNokEltiYg YwJMuRLRB1KrqXQY1gNzotvbzs7gJ9YEkKbgQXeg1MijrlT2h2XEfiZUpCg0pbWxBLJnoiBAKVRe iP5FRMB4MC7gjAa4qzAIEvQW5DOy5F5iANyjQRrPk2tmvQYwLnb1K5An1AE4tLeTyKg7zkgd82uq HnHPgDxRhiL6BeE8wh1F24kYSB4VARLoogAIlAeI5xjutipAhzyPDSLtSZ2l2j2wCGqEeiDt0l5b JTDA15jsbtnyjhAA6gdJuCpTO2TgTrMtEgDNPYAZeJm83XZ2GhXm9rOjt5SvrOXGkofEGyxr7dcI onC1fY7NACSKZ9BxCQVSuSqZVmCMAn0BbGRgpBhZnwHIR106Wsd7EO3XWUBorblAhmtJLSEusYH1 W0m+AW+gZApDwPBD1Ug3rE9BPI4KqZMHycq0vLmZw6T0k9qgFkUv1O7a7VKBlH3v1NQSuUXsyB1m 4RPSS8gaqSbcGRVQnsfFCN6tfZhnmF3wdit1pEYJ6ir6o8Um4zcUYdZYhAOYUOMGltSyZ8R0oQSA kUApooP+CLO/H4EUQ5QAo1wo75WLQ4ew3m+VoyCbqHpRJdDcLwoABSjUJr971BsQk9Rak4hj4GjY cQ7PV2cANd6QqFS1U9CBaB5CRmHVK/QQxq85KrYQdYXopSRBKSbaPIm58AMwdnUrIbv6xEVsyT4g eCISAWXEQGshIbCIFROB9tF9k7IJLIPtmBYSWcAFrd3iGGmSPCF1IUFUVsjkJYJSkYIGMW8xVpKH N82lsZIHsokDkQXvoPCprghlk/XE1dAFc1cWw1JiPSyg4QuElkSg1OaAPBDMT1qSEgM4AurwBiTu Ji/clClCkGTS4TZw6CJgwVCs+L0IXeDM5HWbnXMoBklUQBwYh3/Ii1OtQBjZgTVobNDGEmLQIIV2 JNvjAccxEEIZgUNFEeKs0gC/i2zLXqgqlFnMGHl/XGG2vAczDsEieFhd2DsTS+nyKFwORGgibFS+ AUZItmeRjuQ1Am/UL0ILaZoipriqBm8CQSo0SwSQOMgzQ+PDakshR39B05ho8Jp4IJTIZLBc4Lsc 8IDcBKF4bWbSJCj5NWC5CkzFDO5nIbqQoXckxoGSvEqRDEW7TZxEzV28dpBhFCglzttYkwhwhr7k n8Ke4kQ4JFLQG1NHPCsMgZ/0CFeGGyx6JhqcrAoQGeASkDPJzMxQeBge80N1MsBEucLGJMqNKB6i RLYCoRIICifIYU69RGrdKHY0NUnDRNH5SEGSKqJpyAqkzlZKejwRIeNnrAEFyyJCCkHU2x0VWiSo KBO0HbwMQYPf0CkM0ggvd58yOvjQTGUhLZhEuqPIR0G1A71NzB0GsKqfAbDgOzP2gUnugrYi2PnC EQjEhgCGEScvk2QucpcUcOcdHYlCpQynkKG6QTuBDaKeBdWSwMdkScNSFXExGWnopA5MeMjdB25K aZDrMn9oBMLPZFgJ9A/qOWa7uE+WC6PcwE1eqi7UpVZBK1znSqD4omAXkzgAfS2vUeBA4sowdkI2 SrEDwKQuEgmBEsA3gHWuNoEGeBatgTgKFwbkTUiRGQOuGzAYzjbCBsuKD62970U9cAkMyKXIuhoS WC9ueTpkPICkJfcQPOSNeuenWRAsxcgjdaqAUKpM5UflD0QW6ZfAUgEQ2BCjoeJB6Q4/kFh1BNzm SPv2ccUIO7mEda8yervLhFO3XfkUmrFaJLD6eGm3vhE4Z5D5Rz4hHBlCPB3mlFEcivaAgyI8n7kJ dQ25Q0Dw4iFWXe2vDa0BRtvnBQoR78EqrYxR69SdB0RJsuTwA7edehBcoBkInJlTLoIZVoEbL/I+ EVDAvu0OgCMqYVAcEnqkATaoHoyZQxsgFXErQx2Tx6R1ddF0BTBRLBbFzlCAh1qRYMhfHw39bU2C 8LbmERadqVEoAmEwXcoZoAc5LaD7ACJkHdi9uWJVm5ECL6/DhCRGpxxTT5EkxL67gjsvyiK0YCMr 1WwkY6j7LNFY4fxShcXUi4wDuhjuo7ALCuzIbA/U88wOCZ/Fj9i0pv4PtoJ/vvxBawQYnviDTXjZ VtS28Egc5JUYG33H1bItssox0IzPREv487MT/btHyBUalhOAYEi0KeM1bnTkfwaWDREHaxBe6JQ5 4bUP2A45ojvwb3akeHgh7MTSBqUCahaf39Ylc6fTHHY0VDpgEaZH6iziT9rgesWD4CNsC+ggaEav CTVMrpQdiTvLR94jVckj1oEp1vnufZlfL61CaGsCN9KuGUOJOCoSDHA8sAuk7tglAnuWmD5y1e6S BWvBmzjtWzMLL0dZBq4VFGIs3ag8vw2LKuao6AcGS1l6xtXV8EVZrO5WVYcHlqW28N8IOuThUEFi qK/PWC3AQntLV/YaTKmwCeUAXtzjGS7hXtHchr+rvEvHFYrTHs1O9TNRH10dQwzBHhV8bVtdN2Rv QHOpuy4XDBQgKjPAxqgpL0xbUw8nF5E4vniq41IT0A128G7EjiqsUM7ojDgmugpUI9tAhctip4iQ RyGwmugM/hXVuQkomJhQsqdgVFj+rcYfhoiFRcAbWY0DkfFRr5FKdoxqgclZuSxPB3VfqIL83k/i IFxQ3PLO1EFjjdQJIsdkXKjEntMaqPfsxNeADKFiwoBs5a1cA3pPw8v8Ni6KGeBpiViugLBgQGvg O2Vj52QRU3FIAkv5bgK6WQrQmnTAXhXGRTQQofi8pbYfkXxcygu4+wEdLxKCumbutztYdetlsiyd iWFpnkcEuzA/0qJdPqmKgDpjNaQrw9ViLTCVOJJ1lK7blUlZBvysAdnAWcBtAx5P7rBMACEYwwhY 1tYQF/NQpqhmQrehQbKLRKL6yU9sShYJXnwmyYwaCiQ23NvkZDRymK9DMFypIOKpSkJNuoHqR7PF j4KQDJGiRjNdqkbt8N4fMLYJNZHvfjUcf4/tCxczBTzkJCDKjIXRjUtz0KlsPqCFh4O5C+YLeD4I L9Y5wMs1qgtNRRCTSLwhHcNoSHXCDqbeISXuBPIHvcZ7uloMQuQmNBTIo/M9tciNMMIwsvGSDZ5Z KqTGojZYVCwl/sip/wNRgmEgPQyMl0zqgII0TISrwF+HLFsDbcO71LrJaoGOxzjJXzQOBeaocMQu ONkC3EsuQYXAPvy2CiIeR8nEgMfb7CY8pbYcr5e8jgXeKW2Q51S089Q4ZS0Vjs0m4Yk8An3AIFQY QHibMh8NCBwE5bje57k2K1axxsgGKHc5bocnYk2CupgoUltrR4gmYWzP6xZ8yWMfcP8TPXZff0QW VL7gqm1NZuNEUN8IXB8F63AEMguESjdJ/lFRTeKWvN24ihxI4rfwqB8dflgD5YULa9qDVK9kIf8B 5NelPgt7TerAbmCSOMRPlrEXU85uZPTFUzGKDfIP7fKcFZzWcFLK8HWk3A9BQvYqID5q5xFjqL4m 5qGTGQml8qTrWm93VOqRYOE9XWDVAD7u5Mmt03ATRtqDpzmRhxgT6qZ6+OUKrGT2n3cjnXAqLSdq 1tSJwF8h9hHLm4Ikd0ZESCWdO0DfIvNZI4QZ/wG+VANighwdYU7Er0okpSoAD8jjQsIgJFg86dJX sshGcpAVSLweRwtlkeoJuY/DvOryrLwLubLuM4b8jIOMgCG6y28e6oNt/5o1gxuDBvjNyXDP2HA+ zhDqO/Y60h393Ju2tIBUV9V0KCByu4BiUWPhD6TEfo5wqpMLfXI776gmdQvjTTAMyhYiwg/D+149 TlkJxgMQRflmCks6U63GigRQkxqrKNWYSMhJDLQSF5I8LC0M+Rr2OHxt3QFQCFbUKnHjbazCUdN/ hLfLsASMHlXmgMwMCozXkPFR8NyQ1EBxKhMj1qBp5AoUvSj/pC6FabsGTtYmzhjANlJNJ1kYU9pS WwtdTulpo52EmayFmmaffom+YSlhpiBAQGGBUYBNl2826eyRCtxUcwQ6sEBpU55IJ7zQ6x7t14yO B7enpqN22A6mxRM9foCUkVtLTOe0e6nQI9QX6JDgkgvNa+EBZcYf0FPrGeiEKimorLhVoG/rRy0y IUMPjstp7w32RqVDbqh3aA7/F0OI6rxK53ltOOQhgjZk6NFW1oArtJN2SkZtD/csL9A/lkcXmaCI lfLKp7d159GVBHQGNWLTwDCHi30908cIDve1kItwDVaULATms7YtVkzEA1QjQVUVR/0OoL7BvlOs oP59BE6WDpghjMQnM6p+HBlCrnUAcCH/BkDP/TOvuojKPqb6vEgqdBwCDzqJrAxAoKNBXr4/S6Vd bWa2u0kg1AOrkAgf8mKiAkGZdhqGdZFDJ+WYOnJDzj9g1hF9s29ihMtWIxwWAaAjhIgdolAxkWqn TmRNxkCKTIHupg4WesknxZ8pAGsVB6SeMgwapH6j8zj4OENBydVFfnntdHBP2IZUTzrvgG4dvcFI k4UemDhU26cHIMohz1YKw/HmyzLMoiNQ1nFgIRCz/mrUf3Y2YH88c9J28pjJF8Qlcgbg1qYLgQHQ UGzgBz4f4pHWZYp1Uj2dQu1ysRRm0eGs3UjSRaHGGrH/S3dgCIxF9Q3XOPWQqZJcZDh0OoO0xSOe VjBjCYdPKeJLJPub9kBIa4hpl7VL0E7g0tEvJIabKlRKBjWIUkfwSMQGaBpeIrkqXxHTl7uCX5Vj SGvJ4KWTaryhJBjTEFo74zaL1D45AmOXjmHDZfeBsZ86vMADlV7V60qv6wdpU/w4u0KWq/Ue1nJ2 MI1adnSzchG80wjRdtTflI0n0UgK7RQ9zLxb3Rxj5kAdfgxz1bEbLPZI0kNQA6GSVCXMaE6tZl0s Bgsm5CoYOm1CgGtwUZQaIv21L1WYi6zopjIxPIFQYjGpVJ2NAd1MOqiwMNrRShENrp0tagUC02EC iQ9tumufAqqiRLjM0FY56M9dcLHaQPnsroFMcDsBRU+jwEBrCZuu8eKfASzUBzzQ1+gObZHJYP07 wIrMDa6HACOlipBQ0wh9hXne2nTBRbeA23+NjRQ+nZuREC0O2FtAhRChmHYL5EgrekXnR46XGJNX hb0RKSfiRi5VwIunB/ch0yVNmqcLEvpIGKZ9FC5jPIvrdtD4xCt1DOzervznZQlO0QalzPXFUPKr Tb0jIlABmpI0WFpgX5LhEt2rwCZpnGElimVNJLsOICCx1aEnfeH/Dh5gVxHrjiTbapJzy4DJxIyu cHRuiWW8cG7qqO2oDYjcIIKoDjlCtHl1gbjbqR/t4tSOlSpaOkKVeIZF6pjfVJ+CikCyOkUyuAn3 gV0rvz3u4355Ymp7F/0y334gMupq4lWnGJD3gC+C5Qw8HspJ5zTmk9dgjgsZUxeL9ghQXD3LxzLT JnhAzLTn+k3NkyZpBXRb13bsGEO9zXfkI4LCTpuJTb4Il4v89fg7fFsviHcdLNAJuIB6XD0WicaT PelNlpIhFRAPa4O+J8H9QpmwBVN4T1bzfIIGBXIBnQ/VcQSd7sCrUFzQKkIs+9d7pxZrZc6oTjcT cwkIHIKj8OSu9qmO8/Wt3Y2grfsQfZfUAay7HEFVvxoQxVf3FgngXs6/o1MeV6Azslf7LEDXhS/V 0JT813mOA+lpFPgH8BKkrcjSq962hyN0EMmByQQEyZBBGY/fU6/2CDLlEpgeV746HgFLkyS35XPm ATImcpkRpyjFnYtLJDC6xb/2fTdJriE6phTajur1VemGmaknX3CI4NwaOpKCBoYugmmejMi0YdlY gdFexxBfwpTxYmhYyFVbVId8klm9NTc1DgB1Co3yZVqIYtAZCeIoagBod6IK5wY0L0NdaBjVGjDm wwP4uW0i+9Q6qE3HfAiD+tSbBUNBJ0/44S0mQBimNs1XQ9Mo1AkQwf/cd3wFTrtLR1maSdLhcIBv VIoOoc0EZS1HwPaO2i+/RU2t2Mqqpr1uuFHN7IlrG/IWcl5lIwaxNM9JBTW8/Gt3t+qgCR0DKXLh fSKA74KUgpGJ6B/ICIsg9wV9zKHNHWgfyQZdsNg40S7TvBFaUweayZDF8i11Zkz58VFRyBaTuMDP 5LFRJNL65Xh12aXJZERkz+/JRtTwXDATTtyUh5Oc4OaHFTYZuggqo3NQz9gwIBopqiOfQR76asuz keIFxSbW0WyRBwX08BgGf064pWg3AlXbtAeGNqt6hlthdqBfnZ0CqLL6r4jdBtSaenqpIKzxKgel p5MklFNR13UM9RbzBrhR2v002O9m0BfOZuo62AHDSqm6seGgx3Kig2QsNWL7nU+f4BkamLCiD6GX 8c6uYe/TxDmAYktH3YDTiwEVr62JtvAkIhDZLO63l0tZAvXM96jB1AeQHQipjLu4Bl4xw/R6rBPm KQ/3WqZdArQdmBpdz13lVXUAQs4LMkDSAv/Kn6nMYg3bihWlSYJKfCCGmuv52FO+SaKwZTWemjSO NnnwiKY9JIgxriiqQR1fyje8sxjap2A4UznuwDQoMs+F7EKxmEz2O3OHspltNtbTa1tyQr7aEqmk pFpeoCfgvmTNKssHZptWG3Ga0ZDEEvJHn4csPJTe7KzB0hbe1nGst/0C3waZVm5bqWWkEzTgLOqJ 13WPpMU7cE5JDJ21S5T5COjThHfR2WAv89kmhjPBPNSL5Y7rIc7X5ddHPnfqszV3HFas+6yJ9YDO QBPh3VlcjBxVDeyx7kRdHRJE7Jggvi2YxoEg4C7ef+U4IdT2kkxN6/rZf8SQQOZcWBlkIG5eWNqN NCIRhvaPKBqPFyFxmnrRG4JA9zDNW3XIU30CDL4nV7WX3MaKUNPak+VTR3jqtFGKV/4J2nUZEFHb nHlr/03VdewMrCqKK7COCxwvZMPOFAJoeHU25bPlylKWSUnIo7oT5k4y7jpdigikONFA/VUQJYft BmABeyy/SEWOVG3ko/YxfIkAZfWrWvU6n4hv3vFQBShibZnAmNwZO8N00feZ0XcdwBzavTtYCe09 vuYACiPy3lKc+lRpyBwwZdJNnTvclc6iYFkB2kpRkDe1LMSz1lvAqANWU55bJ2T67vM4e/1VTCMk gJhtaXc5Xupy6fzSO01h/+TR4G8Ce94aAWPwJbKXpCLsSaeWtpEv+pwMFUwt6kgrXowFaTnrmIOO g8h8e+3R+zvdtRctcoa81qnR1rRraG9bg1TxV4ivDQKkOhIjCSSEvtQ2nrNpe0AoRmaTIntEHa0V UZn24Ht9G5TyzTAzIreBThQ7CJfUlEZO2SpogYbW7xTuRkOSA+r0FlRVUXucMa2OXMSfK/5JH1Q4 koARph4B1TtMZ4ATQ5HPM201eHPwH/q86/AIPhJ0S/2tOnF7XKMNIzUj1ZpW6wl2AE7kckz7WIAw eYXaUY9Nbyjq0GR9BAk9OrWJnRWFsE9hFNh/zCmTLToMtnWIjtSP9QHKVWgqlE0K8TUi0ZCaz7k1 xYmxV+2F8h9Mrx0MZSMptXRCU4dT31YCM5WD7LDIIJqH2wJL77wwclWJTE2hSzIA296Jn6wDeqRC wk9pR59ltLcDhfnLaTmSF5TOOuyEmVMppnFr1f6Ajo0TiauYYq+0M94LC0jdSZJIK0B1/cJNiAj0 G7kXVWWgANmDW5WouzJ3F0Uoz8tEqTScZJJ6134n6ZvuLh5k0IYPIkJj0Oc61kXIpb0U+pXRbbMj zgMVaTqxSbpS+9q219moFQagm8jE2SCECD+8D+ecquRBCaAJ8561v7NKOt5YUF661cHfPwNFFghP TIf92iMaHRwdYPZao6L3bb43BFQGfsebOh1F59FUeQikd3T7cyawZBtN+wc4CvQu1kKE7spWBGZO OwZqiEucvrVVyUoDhdV/3O1ZaonGfToINV70ArgTUDrqI57kqBqqBLon0bz24Zg6nlGKLIyFEG0Y JixqV28Ft42CntjSHIB+JoGPHvrQy8Wu69yvPozDa3fT8fxUZLg39BslGRBASxv5cBLIN1qCy6Ih G7t24bUFs+E2RxYbz0RtSBLWojM0sBzDhlpYGZ3SBYq0JZ6pDRjQZAKPth6y1C6QwDPkEUTZopof KMcgX6kdTXCMCEqWA9SsSG3kQpaWQlBMi0ufukR8okDVDkd7OypvUQv3ndfdak8sdKo+DTTqlElB 50OIPeg8C7OHVNU24RVPG4WCQ/qMyL+zvSiYd95s6uRh0Dnz3HPUMeXVH+MN8QE8WdUKqzqooP13 VV5Hyl+q/8ji8FM2RO7de0ZYJ6mVIvUndAOToV5ULWmY9Zm9AlTo7PKBum4J2s02RqTWSmviM+AO 9Xgqq4RGnhhaCg0y13n1I8ZP4KFMqfYDqspO59RYjDkFbMr8fZ+LO1dZChDNmLXvEGD+2VPEbUAc YL0+Y0OqqnHRlJuvskmdExxpTOWo3avWiloXEZrBe0HfuUZ1OuBbtcTH1EGTSoHa1jIULpzUkl4T i+ckpV87LIPtFH0i62U+qo6Z6PQiHB2WzgG1AjCJyBA2SaeOJyj8NtkHcXRIF4gPRkCpAbP74HD1 iVGKLXTflVFM4p2RRYvWt6uIW0KMHi1ql/PKFI8zDHrrkvHav2qUE2MGwA7adWmb+h3dTDrmx4hM 9LkVqLBqJ8m036YzMkg/dfR1ppAUWG8ZdOBPxyaxnqyAOlxdm3kAFd4ORSqG0acUIDvmgc0FV0MD Rgp+IaiDgWhsRtkCw3D4abAqmhYyXeokZ0nzofxHAFKn9x23glAxKaSHW5llz/jpB2z6oB/CKvzR ds2REVBPQCclXFKXZYOAcCe+qVYdlv+8NOn8lT5dRLpfnRBlsXtjYZRYN2lLBrG/3udzScij3IK5 gODz3Ck+jYjANJRmxCKpSSoWj2AoCV25StN+nsIHHbzjqOG4BkUtvHEkXB4bMQAt4SwrYqZz4wIw rw956BykNoz0MXR9PgLx17DHr+9E+AvZTnXjdCPpBtMlXEdbEoEsadMRd21E6ZT0nfqAl2xl1KdZ lofE1PIVrS1X3nIAxaQAnlndDzS7NnXyk/K1IGPhCvIZobKs6oNaXvpCH3rAI9xWdA3HRQairXls 7SS1xtVhrfyMLzyCFRVOlnfaG+GpugrMHiGj9lL5ioov2CwR9gQwuaI+QwIb7sfqrwWIT8uUNMJh a+cULE0Yv90/S0PpDvSjtgfc2/mEmpbaiqMM5F5Bh6pJvBuskkQuFA4Jos80TQo0HsQ9jihE5pBr R/oga9TdVuTT+Gw04z2/Q9q7mlAbsQhU6bD8kCULvenkFnizgA2IWcc/anAbQdBAR5CeqegTakRF B61OjqQ7yG4tpahjciRKbMicDhF9z60OIEWbqW4X3PDSoWHgyLTTqtNE+tQnAFKwPTqxgx00fZRK zEgkn0LU/1lAH3xTCaJV3JsE6Eqyqv2uT0q9EwXUv/6NidIGulrDQAjVi9FjcSBUUOB8TlkHfY7P 6XhDTaw7npopAJRiW51DhvsvwugvlYrxJz3c/wJAj2jpvj49xgAAASRpQ0NQSUNDIHByb2ZpbGUA AHicnZBNSsNQFIW/VKniDwiKoDiI4LTgxIycVIUgKMRYweooTVIsJjEkKcUduBNdTAeC4ApcgYJj z4sOHJiJDy7n43LvOe89aNlJmJazu5BmVeH63f5l/8qee2ORNitssB2EZd71vBMaz+crltGXjvFq nvvztKO4DKVTVRbmRQXWvtiZVLlhFWu3Pf9Q/CC2ozSLxE/inSiNDJtdP03G4Y+nuc1SnF2cm75q C5djTvGwGTBmREJFR5qpc4TDntSlIOCeklCaEKs30UzFjaiUk8uBqCfSbRryNus8TykDeYzkZRLu SOVp8jD/+732cVZvWuvTPCiCujWjag2H8P4Iy31YfYaF64as+d9va5hx6pl/vvEL3KJQX1BlHkcA ABBbaVRYdFhNTDpjb20uYWRvYmUueG1wAAAAAAA8P3hwYWNrZXQgYmVnaW49Iu+7vyIgaWQ9Ilc1 TTBNcENlaGlIenJlU3pOVGN6a2M5ZCI/Pgo8eDp4bXBtZXRhIHhtbG5zOng9ImFkb2JlOm5zOm1l dGEvIiB4OnhtcHRrPSJYTVAgQ29yZSA0LjQuMC1FeGl2MiI+CiA8cmRmOlJERiB4bWxuczpyZGY9 Imh0dHA6Ly93d3cudzMub3JnLzE5OTkvMDIvMjItcmRmLXN5bnRheC1ucyMiPgogIDxyZGY6RGVz Y3JpcHRpb24gcmRmOmFib3V0PSIiCiAgICB4bWxuczppcHRjRXh0PSJodHRwOi8vaXB0Yy5vcmcv c3RkL0lwdGM0eG1wRXh0LzIwMDgtMDItMjkvIgogICAgeG1sbnM6eG1wTU09Imh0dHA6Ly9ucy5h ZG9iZS5jb20veGFwLzEuMC9tbS8iCiAgICB4bWxuczpzdEV2dD0iaHR0cDovL25zLmFkb2JlLmNv bS94YXAvMS4wL3NUeXBlL1Jlc291cmNlRXZlbnQjIgogICAgeG1sbnM6cGx1cz0iaHR0cDovL25z LnVzZXBsdXMub3JnL2xkZi94bXAvMS4wLyIKICAgIHhtbG5zOkdJTVA9Imh0dHA6Ly93d3cuZ2lt cC5vcmcveG1wLyIKICAgIHhtbG5zOmRjPSJodHRwOi8vcHVybC5vcmcvZGMvZWxlbWVudHMvMS4x LyIKICAgIHhtbG5zOnRpZmY9Imh0dHA6Ly9ucy5hZG9iZS5jb20vdGlmZi8xLjAvIgogICAgeG1s bnM6eG1wPSJodHRwOi8vbnMuYWRvYmUuY29tL3hhcC8xLjAvIgogICB4bXBNTTpEb2N1bWVudElE PSJnaW1wOmRvY2lkOmdpbXA6MWM3MTM2ZjktYjQ3Ni00Yjk2LWJjZmItNjRjMjg3OGIwYTVkIgog ICB4bXBNTTpJbnN0YW5jZUlEPSJ4bXAuaWlkOjhlNDc2YzJiLTc3MWQtNDYxYi1iNGJlLWVkNDcx NTY3ZDYyZCIKICAgeG1wTU06T3JpZ2luYWxEb2N1bWVudElEPSJ4bXAuZGlkOjczZTE4ZGViLTc3 YjAtNDhiYi05YzZkLTlkYTk2MjQ5NDdkMiIKICAgR0lNUDpBUEk9IjIuMCIKICAgR0lNUDpQbGF0 Zm9ybT0iTGludXgiCiAgIEdJTVA6VGltZVN0YW1wPSIxNjA0Njc5OTk2MzM0NDQxIgogICBHSU1Q OlZlcnNpb249IjIuMTAuMjIiCiAgIGRjOkZvcm1hdD0iaW1hZ2UvcG5nIgogICB0aWZmOk9yaWVu dGF0aW9uPSIxIgogICB4bXA6Q3JlYXRvclRvb2w9IkdJTVAgMi4xMCI+CiAgIDxpcHRjRXh0Okxv Y2F0aW9uQ3JlYXRlZD4KICAgIDxyZGY6QmFnLz4KICAgPC9pcHRjRXh0OkxvY2F0aW9uQ3JlYXRl ZD4KICAgPGlwdGNFeHQ6TG9jYXRpb25TaG93bj4KICAgIDxyZGY6QmFnLz4KICAgPC9pcHRjRXh0 OkxvY2F0aW9uU2hvd24+CiAgIDxpcHRjRXh0OkFydHdvcmtPck9iamVjdD4KICAgIDxyZGY6QmFn Lz4KICAgPC9pcHRjRXh0OkFydHdvcmtPck9iamVjdD4KICAgPGlwdGNFeHQ6UmVnaXN0cnlJZD4K ICAgIDxyZGY6QmFnLz4KICAgPC9pcHRjRXh0OlJlZ2lzdHJ5SWQ+CiAgIDx4bXBNTTpIaXN0b3J5 PgogICAgPHJkZjpTZXE+CiAgICAgPHJkZjpsaQogICAgICBzdEV2dDphY3Rpb249InNhdmVkIgog ICAgICBzdEV2dDpjaGFuZ2VkPSIvIgogICAgICBzdEV2dDppbnN0YW5jZUlEPSJ4bXAuaWlkOmYy NDFjMzk1LThiYjgtNDZhNy1hMWY0LWNmOWRlNWYwZGM5MiIKICAgICAgc3RFdnQ6c29mdHdhcmVB Z2VudD0iR2ltcCAyLjEwIChMaW51eCkiCiAgICAgIHN0RXZ0OndoZW49IiswMTowMCIvPgogICAg IDxyZGY6bGkKICAgICAgc3RFdnQ6YWN0aW9uPSJzYXZlZCIKICAgICAgc3RFdnQ6Y2hhbmdlZD0i LyIKICAgICAgc3RFdnQ6aW5zdGFuY2VJRD0ieG1wLmlpZDo0ZjkzYzZjZS1mNzc4LTRjMTMtYTc5 OC0zYTI0M2E4YzIxOTUiCiAgICAgIHN0RXZ0OnNvZnR3YXJlQWdlbnQ9IkdpbXAgMi4xMCAoTGlu dXgpIgogICAgICBzdEV2dDp3aGVuPSIrMDE6MDAiLz4KICAgIDwvcmRmOlNlcT4KICAgPC94bXBN TTpIaXN0b3J5PgogICA8cGx1czpJbWFnZVN1cHBsaWVyPgogICAgPHJkZjpTZXEvPgogICA8L3Bs dXM6SW1hZ2VTdXBwbGllcj4KICAgPHBsdXM6SW1hZ2VDcmVhdG9yPgogICAgPHJkZjpTZXEvPgog ICA8L3BsdXM6SW1hZ2VDcmVhdG9yPgogICA8cGx1czpDb3B5cmlnaHRPd25lcj4KICAgIDxyZGY6 U2VxLz4KICAgPC9wbHVzOkNvcHlyaWdodE93bmVyPgogICA8cGx1czpMaWNlbnNvcj4KICAgIDxy ZGY6U2VxLz4KICAgPC9wbHVzOkxpY2Vuc29yPgogIDwvcmRmOkRlc2NyaXB0aW9uPgogPC9yZGY6 UkRGPgo8L3g6eG1wbWV0YT4KICAgICAgICAgICAgICAgICAgICAgICAgICAgICAgICAgICAgICAg ICAgICAgICAgICAgICAgICAgICAgICAgICAgICAgICAgICAgICAgICAgICAgICAgICAgICAgICAg ICAgIAogICAgICAgICAgICAgICAgICAgICAgICAgICAgICAgICAgICAgICAgICAgICAgICAgICAg ICAgICAgICAgICAgICAgICAgICAgICAgICAgICAgICAgICAgICAgICAgICAgICAgCiAgICAgICAg ICAgICAgICAgICAgICAgICAgICAgICAgICAgICAgICAgICAgICAgICAgICAgICAgICAgICAgICAg ICAgICAgICAgICAgICAgICAgICAgICAgICAgICAgICAgICAKICAgICAgICAgICAgICAgICAgICAg ICAgICAgICAgICAgICAgICAgICAgICAgICAgICAgICAgICAgICAgICAgICAgICAgICAgICAgICAg ICAgICAgICAgICAgICAgICAgICAgIAogICAgICAgICAgICAgICAgICAgICAgICAgICAgICAgICAg ICAgICAgICAgICAgICAgICAgICAgICAgICAgICAgICAgICAgICAgICAgICAgICAgICAgICAgICAg ICAgICAgICAgCiAgICAgICAgICAgICAgICAgICAgICAgICAgICAgICAgICAgICAgICAgICAgICAg ICAgICAgICAgICAgICAgICAgICAgICAgICAgICAgICAgICAgICAgICAgICAgICAgICAgICAKICAg ICAgICAgICAgICAgICAgICAgICAgICAgICAgICAgICAgICAgICAgICAgICAgICAgICAgICAgICAg ICAgICAgICAgICAgICAgICAgICAgICAgICAgICAgICAgICAgICAgIAogICAgICAgICAgICAgICAg ICAgICAgICAgICAgICAgICAgICAgICAgICAgICAgICAgICAgICAgICAgICAgICAgICAgICAgICAg ICAgICAgICAgICAgICAgICAgICAgICAgICAgCiAgICAgICAgICAgICAgICAgICAgICAgICAgICAg ICAgICAgICAgICAgICAgICAgICAgICAgICAgICAgICAgICAgICAgICAgICAgICAgICAgICAgICAg ICAgICAgICAgICAgICAKICAgICAgICAgICAgICAgICAgICAgICAgICAgICAgICAgICAgICAgICAg ICAgICAgICAgICAgICAgICAgICAgICAgICAgICAgICAgICAgICAgICAgICAgICAgICAgICAgICAg IAogICAgICAgICAgICAgICAgICAgICAgICAgICAgICAgICAgICAgICAgICAgICAgICAgICAgICAg ICAgICAgICAgICAgICAgICAgICAgICAgICAgICAgICAgICAgICAgICAgICAgCiAgICAgICAgICAg ICAgICAgICAgICAgICAgICAgICAgICAgICAgICAgICAgICAgICAgICAgICAgICAgICAgICAgICAg ICAgICAgICAgICAgICAgICAgICAgICAgICAgICAgICAKICAgICAgICAgICAgICAgICAgICAgICAg ICAgICAgICAgICAgICAgICAgICAgICAgICAgICAgICAgICAgICAgICAgICAgICAgICAgICAgICAg ICAgICAgICAgICAgICAgICAgIAogICAgICAgICAgICAgICAgICAgICAgICAgICAgICAgICAgICAg ICAgICAgICAgICAgICAgICAgICAgICAgICAgICAgICAgICAgICAgICAgICAgICAgICAgICAgICAg ICAgICAgCiAgICAgICAgICAgICAgICAgICAgICAgICAgICAgICAgICAgICAgICAgICAgICAgICAg ICAgICAgICAgICAgICAgICAgICAgICAgICAgICAgICAgICAgICAgICAgICAgICAgICAKICAgICAg ICAgICAgICAgICAgICAgICAgICAgICAgICAgICAgICAgICAgICAgICAgICAgICAgICAgICAgICAg ICAgICAgICAgICAgICAgICAgICAgICAgICAgICAgICAgICAgIAogICAgICAgICAgICAgICAgICAg ICAgICAgICAgICAgICAgICAgICAgICAgICAgICAgICAgICAgICAgICAgICAgICAgICAgICAgICAg ICAgICAgICAgICAgICAgICAgICAgICAgCiAgICAgICAgICAgICAgICAgICAgICAgICAgICAgICAg ICAgICAgICAgICAgICAgICAgICAgICAgICAgICAgICAgICAgICAgICAgICAgICAgICAgICAgICAg ICAgICAgICAgICAKICAgICAgICAgICAgICAgICAgICAgICAgICAgICAgICAgICAgICAgICAgICAg ICAgICAgICAgICAgICAgICAgICAgICAgICAgICAgICAgICAgICAgICAgICAgICAgICAgICAgIAog ICAgICAgICAgICAgICAgICAgICAgICAgICAgICAgICAgICAgICAgICAgICAgICAgICAgICAgICAg ICAgICAgICAgICAgICAgICAgICAgICAgICAgICAgICAgICAgICAgICAgCiAgICAgICAgICAgICAg ICAgICAgICAgICAgIAo8P3hwYWNrZXQgZW5kPSJ3Ij8+WWTU0AAAAAJiS0dEAACqjSMyAAAACXBI WXMAAAsTAAALEwEAmpwYAAAAB3RJTUUH5AsGEBokg7IggwAAIABJREFUeNrs3XecZHWVPv73vVVd ncOknpwzcYAhCihBgiKogIquYZU1fNe06Nesu2tYf2teV7+mVVdcxLBgJEtwSEOcDDPM9OTU093T OVbVvb8/6nZN9TDADAKCcvv1Yobp7qpb9z73nOfznOecT+DF45k4wuLfIoSiv+WLEbyIh6cBoGg/ OIVFOCkB1/B3ohGA+5t6wl48Dv6KhQf41/AAVzXc7xr/jVzt1IsoeRL4BALxflE9EImL3w1EArFQ KCVOfjoQJHEpFiQJMS5e78LPj3ztv6oj/SJ2nvCI9ossMdIy0kKRCGlp5SqkEMvJoQJDevUJpUWG DJXwrCh53XDE+7zIqf7G6MBwCksLVahVrVKZSCxQqUa9auXycoZEUipEerXpEQj169Irh5x+Q4jk knQZJZCKXoxUf+3RaR+E9sGpWqPxxhqrRnkSn6pUqZRJIlcglfx81qCsnJwBndp0ycrptdsuvWJ9 2g08DrbRfn97MVL9FcWoUCitSrVqlSpVqlZvtInGG6NBhbSUtHIZaakis9qX0PLyiOVl9Rs0ZNCA Hnu16bTXLnv06NahR06YJE0l0St6MVL9NUXtjIxq9cZp1GiMRuOMNUqNChnpBEap/Wh2kJBv+zGw KPkzZ0hWzoAerZq1arfbVrv169epT1SEVih64atcL0aqwq3MqEgi0iRTTTXJ6IQ/lSuTEgiL8DnU I0YsFskl8atNi1Z77bFFk059OnUWI9bwEuEFy7aCv1EQ7VvbpVWoN8o4k0w3w3QTjVEjI5VIA8/c NYoTyAwZMqBXh1bNmm2zRYs+7dr1Fc8w90JdGwZ/k4Dad6uqjDffArNMM9FYdSqVSSdwenaXBHlD sgZ12mmHVq222GSPbt3JejF6YcLqbxFUoVBGtTpjTDXf4WYYr16VMuFzekXiRGLIGdKt2Q7bbLXO Op2y+uQShhW9CKrnOx2vMMoEs8wz32yTNShPyPdf5oiT1eKQPh2abbHZRo/YZNCAoaJY+oIBV/A3 EJn2qUAZdRpNMstsc0wzQb1yqUO6CvGIn45HXMf4z7qmsVhOv17tNlvpEVtt0WlAriQJRi+C6vmQ 7AqkPKPGWDMttMBMk41RLfOU8SkuueGxKKnuBYlkEI0AVaEimErqqeHTjH2xWFa3Vlut8JBtmrUk wHqBwCr4K49Rw/6mKhPNdbSjzTFevfInJeP7ABQn8WPIgAGDxcV+1pCcfCI1RGKRQJlyFcqkpFQk fwtKUmtwiMDaY7v1HvCIVm16kkT4vE+DwV95lErLqDbeLIc53HyT1Cp/ghhSAFBeXjbRwQcN6Nen T48BfQb0G0hqeGlhojoNCFUoTyJUSqUx6lWpUqteQ1LaSSlTdkjgysvps8d666zxiJ269YiKYkj0 Iqie+xhFRr0pFjra0WYbp+oJ4RQlUOrXp1eXTh06denQrkuPoSQ69enWK6dMjRQG9RuQUa4i0ZZC 5epUa9OuX6UJRrnUFCkTVcmoUKksKe489dWPZA1oscYKGzRp0p1Q9+dxQeevOVJVmOowix1ljglq inFiJJhyhvTp06tbu71a7dGsWZs+Q/LJgj8vJ5ZLeFQklazZhkEcJbElTIrRkZyMWrv2e8dXO9Eo Z6hSoVx5InA8FbCG9GqzwYNW2WSTrue31BD8VcapAi2f6ngnO9IUdcpG3LqCPpQ3qE+HFru12Ktd q73a7dWpW1/RohImZrxCbCj8PRSLi7EmLq4yA7EUUiLkOWBECf2jl5iuQY1q1Yl2HzwFx+qyy0YP uc8We5JydPQiqJ6LlEfGKNMtcoJFpqmV3g9QeblikWSX7bbaZY8OnboNJdEokC8KEWFS9yvAKS9I QBMJBWJ5sUAqcSdIyHk+IfAFaD3+yDjJcY4w3Tj1alUnkTR4CmBtsMIKK23RNsL+9yKonlUeNdmR TrTYfGNVjPiEkZwBXfbaY4ftttlpj3Y9+hMPVJSIA6kEMIGUjAplyhSqcRmVAkP6US4yJCclMmhA LDRUBNcwFILE0hcWjchpVaDcbPNNNNN0jRqK0HpiYEUG7LXaQ1Z72I4EVs8zdhX8FUEqTCB1irMc Y4qaElkzFsnq026nzbbYYqud2nQbECEQJukskFGlOgFSpRoNalTJKE+sw4UYlZLXr1c2udXd+gzp 0WnQkF49SazKFX3qQRHaqeTaVwiFxphtmgmmmmmyBjUqpZ8EWDldmq10qxW2aC2m3uhFUD3zPKrO FEc5wfFmaihhUbG8fu122mSdtbZp1avfQBI5hm12Zeo0mqBRnQqVao1Sp1p5Aqhh30KBiucMiaXF evXLyhrQpVufTq069OjVrk2/fPG9oiRdBYmIWmiHKLhHR5tlinGmWmiWBuX78cD9qfsej7rPXdaW OBueJ8AK/koglTbKfCc71VHGyxQJdCSr317bbLDWWk126kmgVCgr16jWYLTxJphgjAZ1qtWoVS2U FwkTOTMugnBY8AyKfwZyhuSEhrTrMaBLhy7d2u2yR68BnTr0yxlKVorDQCgsGyrUqFRrirnmmGeO cSqVPUG/Uyyvx3r3eMhqm/SVtFW8CKqnfd7xCFA1ONm5TjJTfZI6YnkD2m233lrrbbNHpz45gbS0 ag3Gm2KKiSZqNFqdiiQepYpFlriEGe1717C45lMs3JQm2iBpc8gnzs5+e+2yW6tWu7Xo16dfvkj8 yxL9PpLWoN44RzjCbNNMVPuE3olIv1ar3GG5DVoSsD4PotULFVTV8gaE0nJocIy3OsUElUW1uV+b 7dZb7VHb7danX5R0wIwxwUxzzTXdeDUqEvYVHKAbb1iPGo59pT8TlHT67ZMY9qlXw21bBd29V6vd WrXYZqM9unUZkE/AVVhj5hWKSuOMNt0iR5luvHqZA9L3WFaHLR52q1WJzPA8oO0vVFBVGWOXWlWy UhZ4ldcbn6SKWFanjVZbba3N2vTKyQnVm2ah+eaZaYKGhBDHJTcsSq5K6f/HxebRQjxJlwBsX7za d6ODEX8Ox7dITlbeoFa77LbFBtu0a9VpSDbRvlJieQW//CgTNDrCCeYbm0D/8UfeoO2Wuc8D1utM JJG/qMzwQgVVaIo+R6pRYa7TLTBJWbIOa9PkIQ8m0WBAKKPeBLMd4XDTjVErM8JBFZcoRLGcrDhh UYWOmOEe4wJrqkgiS5WKRF0vS8RQxWi3rze5kCz3uRkieTnd9mi1x0br7bBHi15ZQ/JCcVLdK5NW YarZ5jrSAhPVJcWg/ePVkC6PusN91mlO1rN/wXj1wiXqjQ7zWuUqHG6eCmmxQZ22WmWpB23QL1au wQSzzLfQPFM0KC9JX3HCQfLyokQi6E4clwVnU18iGQzKyspLS0sLpVSoVKFSjRrlUsrVqRQnYCAY IWjsu977bDNDurVrt8VaW+22U4teA7Il69ZQhYyxjnCU+eabmnCsx8erLjs84BbL7Nb1IqgOXZGK MMM7vEUgp1GlHAZstM5DVmjSKi9jjBkWOsxcU41VNcLuEhnUr0ePXv36dOvQpl2XPv169csX/Zh9 KJMSy8knMSqQUqM2AVatWlXK1RqnQUZaReJOyEgXyzgjmVohsQ7q0G2PjTbYZqttOvQbTOYtFNaI FWrUm+dkR5ltoppi62opbR+wyypL3G7jfsa+vyFQpYq9cYcGqkjGRC/zLsdKyUqL9Irs8hNrk7pY xkTzLbbIbI1qSko1Wf26dNqrTZtWLfbqsFdXUkAeMmRQViyUEhXLMPvWeWGytkwnBL9MZWJtqVWn UpVRxhitXp2xxqlSripxmKZKXmkf78rr1avbNo/aYJOtWnUZlE8U/lAgo94YM73E8aYbo+ZxPZux IR1Wu9Xd1mn/y8Eq/RcF1SjNhzj7pFAsnuilLjIvqZb1261VzjpX2yNttGMd42RHm64y4SiFMkqn Fs1aEh9CsxZ79Rgq+jqjIsyD/WzD+xjX8CovlNc9YsWYKkmMBeVsgnFGG2uCRvXqNKgpjvgo9ZCm 1Ks1RqN5dllrg00es0N3IjwUEnCbdi3aPOYoi8wyZj+GFSg3xjHq1Cv3WInI8DeV/mbarf8Q41SN Wc7wCkcZJS2vyy5LrdVhiztVWugkJzrMZDWJwymrV7tmW22y2S5tOnXrN1i0spTS633pqdSDEOzn P48el8pGAj+WUiaQUmecBvXGm2SC0RpNVps4RIP9aoQFKaRHq/VWW2uDHUnE2kf+K9Ra4EiLHGPG iFLU8Jn12ught7tbc/IJo78lUDWqt/4Qlr+hKod7uXMdpkZer4z11rvBMn3KTHKKUy1InuHIgA57 bLfFJlvttEenftmiA2H4CgwLm1FxxVZ6ZeKnEGGH51Lt3/YQFDlgqFqdKtUazTTNZFOMV6tGTdGZ FZfQ+IKmtdZqj9louw4Dia2msBCoUm2BM5xkrnHF+oEStrjTQ263xMYkCUZ/K+mPbkdq0fGUKXCY nFeY5jyvMl+FQU1uNsdC91qp2RyneImjjFculNdhd1Lr22SnVt2yRcIclsBgJBQK8aJCrbLi5ISU VDKWI6tPvz4DidvKAawtcSJVDBd5C6WTTh1JqXqlBtNMNdFUM0xQr74o2Q6/YoUKNcZaaINHPGaD LdoNGRQgm/C/Zuuc51jjVY+4j6EKU1SoRWirHs+xPeYvCapQv5wj3XkQvCpCnZNc6GWmSOmywa2u 1+bXTrXcaU53lEmq0KfNY1Zaaa2tOhOfwHDKyiGWViGjSr1GjRoSxlOvwSgNqlRK2TctLyiO5MgV HeyFlWOPXnvs1myXXTr0GTIkWwK1QKpofxk0qEOr7SqMMdlE08wx3WijNKgsxqICsMvVGmuBzVZ5 RJMt2gzIJ86qDt36ddrkFPMTqaSUXU2QllPmTzYmo4uiv4X0F4hVe7OfJbrKk8EvrcaRLnOu8SIt VrvNXTYb8E5ftl7GJGm99thotUc8ZqcOvQkJLxzlJplgmmnFet8YDc/gHM5Yu2YtWrTYZaNtmjVr L0myqSTJxkJpaZXGm2SS6WabbLxG9ckAx31NXzndOmyxymobbNViqLgqLFdltlMc6xgzVOxXI8zp 8IDr3G2DvucSVH/JSBVL6dXsYj9OnJJPvOIb53QXOcVo/Tb4kyUe0Saw2HTd5mHAY1ZZbo31dutL 4BQYZY455lpgpvEaE3vcvgiYL4HdSIb15I/h49eGgdFGW1j8t6w92uy23hrrPGq3bMlv5hJxY6M6 jcabYp45pmg0tpgOY4G0Ueo1mOIwa6y03hYt8oLEUpOz1xqtXmKG+hE+/LQGi6WRs1nfczdSLXjG Xid4midc5du+YMMBs37h0maMc5oLLDZKr3Vudaed+lQ6xluco1wZWn3HH+zUYVDGWFMdbaEjzE3a 2oeV5zwH1W7w1EdpK2kprY8TOJSWgYZ0arLSwx6wVUdx/KxkCG3GKI0mmmOB6cYbb7SyEXcpr9Me W63ycBKHh5LXz2gw1yJnW2Ss8hGfLG+vB93oj7Y+d+WbZy79TdWl85An7qbkvc1Z3pz4DfaPUKSN cYrXWKzKLkvd7GHVjhY61ekmympSa5FYt6+6zuGOc7QFxj9pjOzTrUePbj269RpKuNBQ8jUoVC6j TEZGmTLlylSrU6cm+W/mCYG2T0Hfp2rtu80bPWK5ByyzM3mUUokwUGm88aaZY66ZJhunXFyimeV0 2qXJCstsslunnFCh13CK453oRHNU7Qerdg/4rbttLXFdvQBAFYhNtcBtJU/vwf9mxi2u9t0DwIrQ aK9ygYXKbHKvu62W8g6vsNdC/Xrc74/afdc8OaFO9fvFoCipi23TbI89dmvVoztpFS2MwDj4I6NS hQoVqtUZbYwxJpliSnHQx8j3jop0f3i23jDABu20yhJ3WpUQ6VAqSXdjTLbQUeaaZKzKEoYVy9tr i8esskqTPfoTra3SeAud7lTzjRpxHjl7rXSNJbYn3Cp6YUSqUORNNrv7kBevaTmvcKUzrXzc72aM s8jrHSVtg9vcY6sGF3qzmZqts1baRtMcZ7GaYmdJXtpmG/TYqslWW21PihZPnLr3XYvH9wbu+zN+ wkcmpdoE00wy2VTTTDLOGJWPe5Vhr2hcFC3zHnWLP1pmdxLV0qg1zjSHO9rcZAhbkKj5BR9Fq43W We5hW3QaTFa0o812snMdafQIdpXT7mE3ucljxRXwC4JTxRr9m3+242nB6mrHOlXLiGgVmuylLjJX l7vcYKPQPK/2UqNst1OXKY7SmCSInLKkKy8WeNC/uKlkRGtg34D8kdznqQXOA1H0cMQnjx8XoStM MdE0s8wz1wL1I6JXWASXYjVwo6Xu8CcbkjMuU2OcqeY70nyTjVWdfIIgGVPbYrUHLfOoPfqSFFlu llOdZXGJqXp4JfiQ69xuc5IEXxCcKhR5t1P93ZOu5J4IkBOs8ZBXGSyBZNphLnWUQavcbqUy53uj w23XaqHZQmRttdoqy6327y6SLdLbrMdc45fWJdBKFZ/0Z+9ahsXPky+5LrXGmm+Roy02WXkC4nyR yheU/MLabK+H3OBmG+SEylQbZ5LZjnGUSRoSmXP4Meq22UMesNpmHUlHYrnxTnW240xXWXJ/81qt cJ3bbH625dDgGX2l2PWW+qzMIfGUQqz6Oz/1C+/SLbUxG0iZlnaYN0p50D1aLfQW56pVabS8Fmvd 6SFNNrx2IOVX4WXR1RP92okJrIbpbZ8lbnOvNZ9rj/GZMNGK4mJx2MY4lPagB6zVLaNarf/aPyEe KCmWeD7b46CEOOWMC4qxMdoQD1+g2VUWOd5JFpqjOlHjoyK4omJKHHS/W9xgtSFlaow11TxHOtxU o5JUGAjk9Wqx1r0ett4eWTmxjEmOcLbTzUjqn/tWgg+43u02G+D/i/qs1u9455uUKCuBQEo6qXrX Pg/Ez5S8o9ziH/3vAUn3kz/jkatc5hpv39A1J70xF5iZMt5pejxqyFu9xVQV2tztLg/baNs5ebi5 2PZ50dBv57rGkfLJth55UTItqscjlnvQcqu/0F9vqoUm6DEob044omlh+IpEfDIaRbFQmFGrQYNR 6pKp/OVSInl1QTHBFszHWuMocf1FZgyv/UKxqCkfCM2YYK5jnOgEs4vvnS/WH+PkrPda6g/+YIeM ChNMN9cRjjZLtfJizXBIhy2Wudcqu3TJizHGUU53hsNGWGRyOi11rbtslROdF01xiYVJyaFMhWq7 bbVLm15Zn35eKOppOZ/wMRdYoiyR+g4+eU53q9nu9PYNG+akmvKzQ5Vmm+RMF5igy52ucr9OsfjN 8U8TX9N50fCjfn36/NwN81xvtlzxQsbJkr1w9NtltUet9agWPQb0b8gGQiltHrDKNn1SylSocGWY dNekk+H7YTJ+g0GDcslXVnZPlC8xO0waToPRzjgudmDFYrMKAIs350M5swJ15jnNyxxrXCJQ5ARS yS8UzrrNDX5sqbxqE8xwmKMcZYrqEq98r+0e9ZD7bbRXv0i5crOc72UWGlfSmprT5kG/cmPiZrcx ioTK1dhlpW16vU6TnToN+uTzpkyTcac5XutPhwirlLxXulbGJu/c8Mc5KZMd7khzTFRmqdusSUTD gtAafy7u06EjMUQFuCl9Tu7mw1zpONkR3siRi/nC0WlPUlLZaW8yhSorSpb0Y43RYJR6o1QWy8qp Iqj6Er9oX9KAtcMOuxPbX8eOaDh8Nu5b49kaF+T7OcP1xPz2eFCfAcdPstjJTnScOrEgGQ0yLKES WeJKN2pXY6KFjko86/v8VENabbDCg1baalBOSrVJjvcqx40g7XnN7nSNJdpFNOUqNFhllWavtcJ2 KTu06DHouucJqNJyTnKrQRe7/WnA6tM+KzbgK76pwSSNjlRuqYe1yMpvj4eNUIWhCC12a9ahL4n6 NwWviK+f4KfOLk65cwA29OxUPGO9OnXba4vV1nnE5r39wx6+hsIMvHhjHFGsU88IBNsSwjw1Y66X eaXT1BRL0Cn7/KFNrvUTGzWYZpEjLTTH+CQmF7oct1vmISus1yErL2OKY5zhbFNKYJW1w21+ZYW2 Akn5VrTXWVZp0WWbDqGJppjgPc+bSJWW82Ff1uFdfpkYcg++1MOPvcWgcnf6lC6nG3C/RzYMzQma 4mDErLBA1m7bbUs4QIEZXJu6NP+rGp/2PpXyTzJ3s4SqF3v+9jki4ich6Y/Xr/YvyxReJWu7NR6z 2iM2a+uMsrImpiiQ931vOjMQsiVfOJ1Zs53rAscZl3Csgle98Ij0+K0fW6XWTIssssBUDQmwIkP2 esz9HvCYnbrEMsY4zvlON7PExzBoi5v9xjJdiG6JHhHbYLs+U53kZHXyYrOeRVAFB6njlELjN15l yCd9JYlAB3821X7tbIPKDbjFz12vSywl2hCV1nuHn/a8zbbaZa9+OTG+Gwrenv/Rub7q8AQ2BzPS Nf6zH7Q4oU/Dp7cvTg551Br3e9iq5o6cvLyZoVB+Q7wftAL5jXFsdmCBs53vNDVF0WG4+3DIna5y q1pzHWux6Ym7IVbwWhWU+hW26JKTMsYiFzq9RGKIDVrvd663slARfGe0y5C5znS8XHE4zbMHqkBF 0vl2KKR7otsswNXea+8htDiEn40+M9Z1TjCoTKjTz3zbo7uirGkh4uFnnH2TNQZt06JLv8IN+1gg /FD+q3Xe7r1ml6hCeI6H70cl4isDmq1wtzus2tYfyZuVQtQUj3x2Z6fETRGzy8xwgbc6QorkM+ST tfI6P3C9evMtssgsoxNvQ6Rfi3WWuts63QbkjHOis51pZgms+jzif/3G9kKR6APRyyyWFQmSnTHL SwoCz3ykqlSRuIIOJQW+1O9VCz3gCncdQrRLLcsfM80vnSifrNt63eDnljS3jA82xzMCQQFa+8Tt wuKsV4/+pJzX6y2h+P/GXx7jcpdYkLCUv9QRJ7Fmn1dimVvcbuXm5kIhbk7QtN/VmZ1EMuZUOcsb nWVckRHmk+dpne+7Q53DLHKcaWqSdV7OXus8YKnl9hgUqrfIBV5mdgmsOi33v36nWSTaFuWSsQ41 eqyxU6crnsVIFZtrwLZD0mDLZL3Ld2WVGfBtn9dxcH6e//CB1NX5yyb7hZfIJR7wAGv9wXUe2tmd T4S6WWGJ4SY+ILQDufdH36xzhDOcbIrxqtT+BcE1XMpNJbd+vfv80e1NO2PMKbKt4WNOAYb5rfG0 wAIXepMjxUk3YJyA9DE/cr1ZFjvOAuOSZtm8bhs97F7LbdMrpc58FznHjJJ5E3vd6ypLtIiaoliZ Wi0etM2QQOBTzypRL3OJhzx2SAWYlLzP+ZQhaaHVPuwmB7H35jd0+3Tqa/krxvmBi0aE/EIz1r2W uMt2fduy0ePm4zM72BQPp8UWu+200y7/L9BosuNd5rTnYDOjg4PX8MYBe9zs5+7Z0KkArRE0PiVt Uor+fJsptV7ucmeoUBhaW3BjxVb6pnWOsdhhpmtIkmWfZivdYZnNOuSMdqSXOd+8ojkmp9ltfuZ+ HZuiKrElmmSlpGV0+8yzCKpQZKaP+JJNMkn7wMG+8re9x6C0lCE/9w3LSqY7HfB4vypVPhN+Lvp0 2j/7uDBRyEtFzCEbbLbZYzZqTRoxe5IziwQqVChXlXjOp1tguimmPO26w7PJuIbHQK7zW9e5r2kw MCslkN8Sp6SUySjTbEYK0X/Hbwsc600uMTVR34cV+z+5UqfjHGeOCSoUepZbrXWXe6zTIafeAuc6 y2HFeJ21ye/80qMGRF+LeqRkDNimVZ8bn9VIlZZzli+53LJDEAkCsXI/dlniqA50+Y0vW51QoQO+ zsXKVarw7YCvxB++xHeMHaE5Rfv5LAvyY38y9aCwBK9UJqNc7QH6eJ+Px3BHT78Vfutn27dOCZrj 8Wn5vrhXm7ZkYHK/K4LPxxE+M8Wl3mlB8hgVBt1GbvUr5U5ytPFqZZDVZp0H3GO5PSL1Zjnf+Rao SXjuoFV+6hZbDfClKGu9FnmTLPCRZ1mnSst5t3/3f1yVJKSDffW0K70hGbYaCvT5H9+1IimkPm5V eI6UlIyMnwfC/5v/8kyf9Xpl+2lOUVL/fGqxYLjRwDPY4vDsJMQ46bvpcK0r3bt9aEogFF0d9yRz OwrY+0zIF6LQx6u8zrscK1PUAAJZv3O3RovNMVZF0qzW5EF3W2GnARlHO9d5FibcKtbpfj91a0EK vSDKW+glTpQz42kXgQ/2I6c8oMHXzLRMe9KFezCvn3O9WY5OklhemcXe4HgZO/QmP1NyFscnPVAD Fjg8/lHqbXuX/9ZGh2lMxlAHRRUoLLHsRvt9lVrqQuHzgkc9dVG9MLeh0rFe79SvpWz9Vt/1wTXh 78NT4nyS51JeHp8bfyx1a+pfBo9ZvvRqDys3Vxp5sZTDHWe75XqlVUsLZdQapcpQsg3KXl3KjFaX TEIuUyvQbI+s+LHgi/GlxsuJfPNZBlXhY9/pWJc6V5tHk90N4qeME6GcPxjv+GRRHcgrd5gLXWqW dq2yCTdICwT/Jx6lVoVAzqDZ8TWB8DUr1v7CTguMTqZr7i9VlRZ8w5KB+sELAEz7A6ugn6fNcaHX Xj/e5s/uPTP+THB76py4sHN4pMPR8WHRTj9MyZ6ztulafzLZnKSkE6tyrOlW2FT02ZerVq/aoB4D srq0yBirLimWl6vWa5cOOX4VvDeOpNX48nMAqlDOEmc60iVOt9vmYo//U8Eq8jtlTh9RIg2NdpK3 e415Uvp0FVLa98z0lnCZNcHb1Coz26z4d6G+c5Y2XWm3CUYlVaz4Wazi/aWPArBCY7zU229vvH3r l1pu8SofDhbZabtdWnQZdFj8WNCUkv/Z5muustwck5MHPTbaSXjQQMIuM6rUqhQkRfAe7WKNRgkF yZ5fPbYZEIs/GFerdY+rn5PaX0reQtdaIDboRt9w5xNxowNcpMt9U6Vc0UAbFTWo2EYrLbfKGk2b 8olDxG67XRgkOyyEcm/O/7TWCV7uHEcd0uMpIL3eAAAgAElEQVTwgjxSyqX0ydPqWt955/JeV4WC c/JpNcYYa5zxJjo9kBJtjGZVer0PWGTY+pfWbYkOC8xQK2XQTivcaalNulU61sVeblpiamy3xE/c qw3R8mipPc+qpLA/YT/aTcbLKpN1p++4QW/CXPJP0oIZynup75l/AMpddCDptsVKTTZab5seWUPb s916DCSEoNMenwxMd5yjHG+RiX/d0ApFhcewz2985RXL6vw8FP8ynmKidEIfY7E5oXh7PKXKW33U 9OJA7lCzPxnnMA3SBu2x3O0etEGH0U7yWmcmToec3a73Y6sNiL4ZdQifZfFzf1id4lcmGUz81qtc 5fceTVYg4QHaAPb9ZqOv+rsS6a9UDNx/LdelWbu99uoumOEMJVt9lEtJqTXBIrOf4aV9QvErwnyc Ex9gdVmFupJOz0Im7hUZFB+ij/oQpNKUQL9rfO2hZccFUuKN+X2e5lDatEAo/kb0wQne5+0mJPp9 WtZ9BszWqELWbivcZan1+ox2qku8xOhkm7n1/tfPbEL0+ajMR5/Th4cTbC3ZqizW4vf+3vgiTNMH 3Jm4kMrepiUZBh0f4CtKfLjxc/YVpaIgJyuX1H9Kv/b7l4q4Ma57ktcqi2vjhrgmLo9Tz8J5isR6 fd+spmQyQ1MyI6nNgPv8yBcI/s1XWehHyXjJwrXc4laP6DBk0BZ/8DEvM0Wd6d7pZm3yYpFut3mz 8dJC4Vf/jPXG0znKZB3rGjPkpEusr62u92sPapY1PO9kZNQqVOtm+axLlD+p3+mJmqgCRniggj8j LkWPW6wM6Esq0t122OVc84ZL0dVxSlcAU00y0RiBnFifDp16ddozIk6lizOyn8EWnsIV6/BN39m6 e1pIe1Su1Rab7TQolPGRQCA+J775LP/mhMShkTJkhYypakRarUl09i7jnOuNFqkWiLS4xX9ZoYuv RVc8p6AqUPbD/bfFCfEuTWg73G+J+ywzUOICCoq1+kIR+AKfdkJJaH/uSiP7i6addthtp8022a5N l07d7+v/zxqf9x4ZKqJ03B/mA6aZapx6dSoTd/HwHo8Fh8RQ4pLo0WbviMtcplxelDQj/5kiaSDU 5JuuXNZxTCj4dr5LNmld2GCHXjenuC9/Yp33+oBGeXlpoc1aTTVKpM2j7rLEWj1mucBrHK5cIGuT X/qVx5Is9JyCqgCrCa5y5oh4ky8++Z2aPGSpe20oMRUHiZkslNXgMu8vlhqCZ1nxjvd7j17rLbfc Kjt16rqk91TdJnmNveYE/xR/fb6fODGMU9Jxf8gkU1WqUCYtnUxEKwTN4QEM+ZKgGiV7VPYr+Oj3 tRaNU65vBOCe5mcJBZb61y/cmPeZUPzFuNxum3UY5TinmmJaKNiQn3OYz3qtQF4src9W1cYJtVnl LndbI2+e13iF2crF+q30QzdpSXareE5BVaje1fi6yx9Xjyst/matdZ9VVtuqWfcIZhap9nrvsShp kXx2dKc4KdMU0ttmj3jYKstt74l+5yItcspMLxhJ4jf4ebAhN+dMV5pcIR9nA14VHRvu0Gwoycf7 1NVhKT9IeiNKddfhSzGUdEkMGdKiIzmRQzepPS5iFa7hVT737+s+GvCmuE2NE5yhMaGCc4ZH3L7W F8xPylWBnXJGK7PXGndZYh0WuNgrTZYW2+s2/22pnkK/zXMLqn3605c1FPWnfbcyn0Sm4Yuw2zab rPao9R4zWCw6Z5znYi83sWQLjmcCXsNt5YVju/vd4wFrtrXd60Y73FR6bjHb40/Iuyr17/mPXuRK dZk4kgv+wcsttNn/2l2kjiPnOoZSMipVqlSR7N9WyOrZZK/vXn0GBSqNUiej2e+TWDVed7Kv2tM6 ckhr9h++e177jSH3RRMSkSqlUrW7nJfiJ/m3jvIBH1QvizLdOtQr02GdOyyxQdaJLnWOMUI5W1zr F9YZeHop8M+9dQX96Xjft+gJ+1dGDqQg0qPFY5psttkW2zVLqXOs13uZ0WpHrNefLqGNk17kfqvd 5A4rdezMDcmbney39854i4lmme21fusVWjErdW7+pktdObY8H7eH5QNvqDjTWQb1+g/bkr7d1IgN tgobl9aoV70fDRkuTnZo167LoNDopHFv0DZN7vZrVaq0/vkRa52PL/31SYFgQxRIq1LmQY94pzus 9JFQfG580+H+w1kieWUiLcpVaLfGne6xTuh0f+84tQL9VvuRm+x6eikwSHqJn/7QsgK7Gu1z3qG8 2AzpCcH1+HFjbbbZokmTdvWmmGWOWUY9LY4VF9eigR7L3Oom938lSiv3nqRAtCful0287de6W9q8 oDE+xz3eU9aUnX2hXwTl6TgOTrvxlPPbTXSJMmn/7R4VyTaAlcqTaf+BtJS8fNIusP9Ct2Cyi+2y R5dBaeMd4XjT5UX6LfN9d5qg9c8ZxDKc3n/kn5u2z06xM1/o0jrLMkMescMNoWBrflql9/uI0cld 6hQr12WFu9yjSY0LvN4C5ehwlx9Z8vRSYKDCWJ3JmPn4acerWOBcX7SoSCIP5lI83o6S1apHWk0i yB1qfAqSDc6W+p3brf63/hifDD4fD79hSp0ZjlGhR04glPWb9J9y5a5N/yb36pP9Pj06F1TsffUv PviesX4oUu0DWuz2RWUmmKiuRNAqHZxXrjrZ6ioqdpvmk41My+3QrMOASnOd6ORkemRor5/7ihr9 hzjV5IDA2u6fV/9ojdeH4qXxKru12azfMV6rUd7sAMf6qpcmj15hH5wua/3JnbaY5GIXmC4tb6df usr6pzMtNECNhQKr9T3NjT32pcEGn/Ku4qSoQ7kgw3cm9bQv6nANstn1rrT0ssFyGd9PcUU+FCiT USWT9KpHQhMtMl9XMqJ8dvit6L1T3WwBr7z/vT++5TuTLTDf181W5Tx82TbzTDKUqLYFHbtQqR1j okmqEsNFgWXtssVWuw0k/SltiUg52mJna0iAWanM//OvKpMdvf+sFWFK7BqfuH39GSGfiDbZa6yz vDxpvZ5RuEIVPuLDquWk5fULdVjvNnfZaq6/83JjhAYs90M3aD706XspDNlprLPV2PJn3NhYaNBN blJvtowoIeoHA8h91pX4aXC9fKLc9LvNl3zo36/649aP576TWh4+5NJoXtyqxR47bbPRBpvt1CnW YNA693rYRoNeEjZHZ9b5mRNS0anbXr1iz8cud5ivCF3mJ0Y73oB6S02RSW7QaPOc6GyLLTDdWOUG detPapT9eqVNtEi1fj3y8mrUyxvULa8uKc+FqLRAveV6k32b/gx2G+Fwr/tJr2VvzX8rtdqb/Z0j 5cTKjXOUo+LbAzl3uN0CM+SFymVVqpGR1a5Zr0bjZaRVytmsTe5QqdG+4coNXmGGJe4p9sQ+XX6V crqPOG9EQnq2juEe8k7X+JH7N2cLT+OmSNHNN9xqHBk0pE+HZltttEtOlVHGmeQDodh3vXPq0H9m jr76trN+1XiaiU73XQuc4f3OdZHA5U5QLStjhuONKtri929m3lcKSKlU406P6hFKq7TBNv0Wuchk ObFQpTr3uM3vrVaeLIoPqEodCgX4g3/84NZvpMQbo+HtWK/3mDIt1rgpLa/GR/1fGXkpQwZ1WuY2 94mc4dWOUiFvkx/6te2GDm0VGIwofizwbuP83E2GKNkY8VArg5HQed7ldA2P21zjmdSfClxuk1/4 0Yb1FHpRmuLgcRXiA4fHQEpok9NSH8p/9b3+c/TgZVsnXH/cB47XKeVq98o7ydGOcJWP2OEKRyuX N9158voVxnR221EyJqRMRr1xpsonxboyNdrcb6uctHI7bTTgFJcqT75frdM91vqj+1Tut1lPpf64 uC/NoSTCbT686ZeR2cHmuFq/JTZKG3S/411uWloscp5vmiMSyurXZrXrrFTlfBeaIa3X3b5via5D o+vBCDDEYue7QtoPXGuAg/BKHTheFX7nGJe4zMzk9uefQVvvcARc4zuu3bErMCmFqD0uk9epS7+8 SFommQdUlmwtOpBINdUaDBmSMyG1JT/9hFl3hcE3V/1ybctZMxpn6lfnHZqxwkkGXW2yU31PjVDo bFP0SdntN9bIKpNOho3mk0e6TK1pFjldNpluVW+dh+wRKtdhrV6nuSzJKxl11nrQDne6c0S0GqWd pXa7QHo/UfnJYZWXEvuhT+xsnZQSfz/aLaXCnRp9xqDQzFBa3lRfcqm8lLwBOzzsj9YY79VeaTR2 utZPD1WxCh73+EYy3uUj+vzCT20o1u4OFVrDwGr0Shc61egkDeaLsumfm/LW+w//86fOlwZC8bVR j159CY3e/6ONHHheuj3WJ8PPR58adUzTslGX/c9JqVeclWoc8gub7DTZQoMuVqka3/Vu/b6nWpn3 2qnMz9xuovklXWthskdul06dOvRpcLqLZOUFyo1yt2UGZURW2usEb1QpQrkGD3jYXne4u6S9slI/ e5yp3IdcqOZxxaanilePeu8vb3tdSvyFqNp9BnxUI8b5hcsL5u7Q+302MTF12+FeS6y3wJssVmPI Gv/lOs2igyd8qQOyovv8xFiXu8LxyvToTMTE9CEMtR8GY4/lfuGqohW/PIl+uWTW3aElxyjRWNb6 nPd9/s7bhv47xWejM+KWZB2XUq5STp9O7dp16NKtV48ue+221WabbbbdTs1arUnNjFb/646zz/rx 5M5Vl3dUz1Pj8GSiz+F6fFWXxQKL3W6Cu9UJzMYPPOTl6uSVm2KWGSaoFuvXL1BlrOlm6fWQG/U6 TCir1xRHaNYhMEu/tdabZlQyF3a2Pu0m6LQ7KZCSM8pAtbnXfOmYa2/9jX4TjCF5boKnXP5EGr3h Vzn3iG8rGxu1e7N5Ig1usMUrTY8eJrDUMi/RgHIVKqV02ClnklEyqoU22pPsSf+0FfVQSl5kmnd7 t1F2uNvd7rG8iNWgmCzjg4BtWLwMk82w0NEOd6SxT7uMusfX/ejzez6VEsp/MQqkpOTs1alLn0F5 VKrToFp5YsIuU2WMKWaUmLWYEzZFa7544ceuWPLx/3Jm8LYmO6wRo1aPO50tJfb3icFi0BZfc5zz PeIXXqrf8V6iM2k4lMyrLldjg9W2GZJSYZcm/RZ7nVp5KfXWuMeQcnusVek1TpUVyxjrD9bZ60pt paJhTtp7vvDdT5b9f9mPTXeRtzkm+fendnfkxMr82j9dvOWalGhznFPlEfeotFK7t3hdqFzOAt/x ErFAj/WWut2Qs1xoksAW/+Pnhb7Ag4NV8KQL1NhMV3i7KpF+m9zhNiu16i7ZFS9Vsh/wEw/hCBNo Dfux6k3SoM5k873UooOIfwV5b8CVvvClrR8JhKKvxv26devWo1+s2niTTDbN9IQEx/vZsQo3vcpe 623z9kDw2fyvd28ZvPzS0X9ob8zr06rHS90hZaIzzDRambqiR27Ax830D97jfL0+ZCdSBq3TZlCl qeYm2npKtaw/2ShWhlVaHONyKZGMcX5tg7RyD9rrpd5iSCSj3q/stM0PSoemRkIbnPW5rZ8ukzs3 vqncK/2j0xOW9VREopAGt3rHbX88MyXaHrf4g4xHdfucctRqTKPeF71DINBvjT96QJXXOs0oA+7z fXdoO1heFTzlOo6jfMAbVCXrj07rrLPSalvt1r4fjPbfDigeQWn2HVXGm266eY6w2KSnWNsUiGfg Zp/90t0fCYTif4gGDBo0JK/ceHMstEBl0Yqq6BwoTAYos81Gm7XJC5WpsNnXy877SXNq+cVf/eeL P58rLigJZaT0yhvQpsYvfbhkN9zINZpMcomMjB+4X5kxxqhGrxatMs7y6kTPqrPTPXZLqbLCTi/z ZkOo0uV63SrstM4UbzdBXoWsX+uxzK9LYZVV5l8+/6+fSjZ52xTPLPMyb3O+UQewZh8YVv2+4Muy Uv+WY5udvmVQuS7XGfTplECNd/q0GvRb7larNHq9RSq0+p3/suZgpYXgKb9fAMRxPuASlSU3P6dN uz222GiLPdq12as3EZVLmXGhiF9nlEmmmGqaKcYZZexBtqQXHvxtPubqt8RXBhfH2YT6ZtRoNMVs h6myb5hrWkYlmuzQoqvQkSKUVmGTbXpMcZq/Dzad1nHZK8595/IPvOZmmxKzqgSEu5KZYRlDMr5f nMBf+HDXCLxe5J2mO0zhfFIqMSAnLe1+OW90YpJ/6i13r7xqD2rzaufLCTR40P0ClZbq9/eOkVdl u1sMusED+2AVC7Q57htbPhi8Kn6fc4KNcWBm4Gjv9neqDyJiFeL8b1z+hbZPpj+SW+EriYvhUVU2 +1ahl7zCy33DVAx4yK3WO9wF5mKd77s2iVXRnwsqJXrVIu91sQaRrHA/J0HB6dGvQ3fi+BhKRJsy 5Qm5yTxu4/t84vAJnlQ8SOl3pc+du+OmkHOjMlXqiw1KM0p6SoYZzXbrbNOZ6A4pZYbsslunsV7u LFmRlKHR2fn//O7lZ1xesXfco6gyy6mJMTJK5nxU+pYKA95WpJCFr6udpdHnfMb7nZXMFbs4qd+l 1VliuYxWq031GofLocouN4rUuEe/NzpZTtp4/2OXCk02eb2z5NR62AO6/UCn1DCs8lK+/tUrPpR6 U/5TMtKmp8Rfjv7opiP9k4uMLjF1P3G0T1vh8k88+G+p3+UPV+FPmuTcb5ZvBwktyTjGfzoag+5z nTanOMd4vW7wH1YdXKwKDpLOp5IXO8LlLjUpaQoISsosB0u1lWyEHRxUjHrEhy658X8DKdG/RvXG GGuCcSXtSYWFZpkKNR62VrNcUn/rt1uLLsxyulNkRcqM8UerBPZO++F9R3V9dN5CsbQq1R6zwS7d 8spkPeZfpGVlRHjMg95QzOXVhnzQVwR+q1foDKEddgnNcLiswETf063GGttN9XbjRWo8ZolAyn3K /B/T5VXb7I9SOi13oVfIG+U6m233/X27HMQCW73kwu2/C7dFgyo94NWFVXTcFM8+xrtdprZow3sy WHX4xyt/9paQ66KHdVrjn8yVN2cYVhXm+ZIzMGSJ34qd5zSV1vqeX+o4mErgoahFwxxrktf6B0ck smh4AEEoftw7PB1VqjCB6Qc+8bW2K1KiB+PRyooJqNQmV5h8nrLKWnvkpWREidG0zFwnO1lhTlyN FjfrVeVD6XNP6X7dqRe+867ay+61UsZaDbrsUmGxt8qKjNdst/HyfmWVUT6838f6rEVe5Xf65b3D 1cLEHrfJOsf5B1l1VloqVONevd5njlidh9wvrc/D5vmQIaEJvqcHd3mFV4lM9P/0+K1lBfkTdbq4 4oKv/6Fsa3ZIrd+rd7tm14RsjhpVHemjXqdshM/1QI9pIPAlnxAJPhqt9W2DUhrdaJ2PF7J/jYn+ 1cVCWde5XqMLHanfDb7q0YPxrh/qzR4GVqWLvM1LkjGnz0YZJhLa5uO/vOp1gXBr/vFQKshgBc28 11obtMhJKZOzyW6DJlnsdPVyYim1NrnNkGoPuDp8OG454ec3vu+6m94U222tNzstSV5j7PUbHco9 4tN+JWuLRV4xYtRNQUL9mpdZ7Fvq8PceMsUo5bo8ZJMyW+3yBRVCjX5uhyrLDPi40WKj3OYRFZps drnF8ka5wSbVbvEaZwu1uOH/p+4+w+yqy/3hf9Zus6emB5KQPoQkBEICSA1dQECKgoggBxWUplJs R0Qpih344xFUQEFQEFSw0KV3AgQSkkAyM0kmZZIpmd52Wet5MWuGARt6PMqzritXcuXFzN5r3ev+ 3eVbtLpqKFdV6OJpR3yp41tBTTTWDco8ZYQvyatO8N2w31f2898OkfqbT2Qg+9/p7Muav5qsL+ZU WuH5Qe28gRq4zETn+Zi0fnd41K6ONNYaP4pz1d8JqtQ//KgH5rB9bvdruznWCWYMmRok/qVLmHtc uO6NqSlhXTE/7NRMSMQ27ClpgXrrrNeiIKFEWo2Nek21j4MVhPJSRljtLl1KbbDW6W5Ljig+clzj ugf6Xpf3bf2yVntSSkHSc/KO0GYXFRYb48syEvFObvhe8QJdFlvmQMd5RLnFtuqVl1ZlOir8weMW Ocl+qjytR4VvKfEVrRZ6n5tsp9pNXnaWVgd5xYsO9xvTzDTFKEnzvGa0reinYB+7pR6RCIoleuV1 2UmEhrDeHinRx5/46VMO9SX781fhRwmRvBPM/OpH6t+Ykuwu3qQlzu3h4N3vscUPtDpHhRN0W26y vU2wl1e8KPx7Qp3/GzZNGLugHOE074lzVvFfQLcKJXT7mmvW5acm64qDA4JkHEYpaXTq1KFVsyad CnGRvtk6bUba0xFKYgJJlXWe1CYtZ7GpvqRfdeLOBT//5XbFNR3X7JFQ7gmrVHjYTBcoGOdqB3rO 8T7lWn90v70944d/duMiCd9VaScPuPPPyFel5thNn6nWK/q6vJHuUa/SE0b7mpyMBvfLWqbH12Wk bPKQjMdcL6fPb6x3/dABqCjp6svO/2qyrlhQ6Q73OdWeIpWWeF7WFxKiNdH0lJNcbPu/2RMWJa33 X68/Ojul+K1oo6JpQjs4btCqaYSJjvcZI/W6UasjzbLeT93093PV/yYAgiGTH+Z7v8PsqtSAF2jw T7oUR/IyVvn42qenJUW14SAYLq1EVrsmbbr1xKilXv0xBCyjx1pbROY6yDwFoaRynR61aWhK9CEH K6oOrorWXfzsubve+flzaPMHlf5kkQ8rGu8aKWuss7dTRMY7zbf9VIlTkHa/Zs/6f/F2fKNH/cwa RDIyQy1DThhP9tndzsbqkPMVRWPdYYusR+3vQ0Lj3aBHp5edbjeBRg9qknSuCj+V8gP1g2EVSlhj fl3njOCxqNwfPecS4zHa/Wo02eJXgYTosvCrI1zok7aJ36u/PGtP6fCZS2/+WlJ0SpjT7lpJRSsd NXAIVpniWGcZp9tNqhwi7Qk/8Nzfq6v+FcfV4CyrzDxHO87cYaf3P4amGjjv73NG3cYZicGAGqAW JNVp0KJTn/ywbzWAAi+xxnqdxtnbYVKKKDHG/VYIZTVaqcq5thWZJJv41nZ/uHXmgkv+kDjpSfXq 9PmmnCr3qddnscuMk9HoJfe40i9tdppvuMKv9at3maSifg+6yvqhxuovVxdFKXnvsZdxltjT8ULj 3ahbk1W+LyPrVS+q9Ii9nITXLPOs70lZ7jUPe9g0a9+8Q8fU/XFG8s5iqYfUu0ZO0mg36vWc8zwl qdQFAR+MfrODLzo5bl3/mqEKl9/ztSMTovVRgy0WSuo1PYjPopFmOchZJupxh+nm2exmd9rwfx9U g6iDgftaYneHO9hsI4dQCe8stAbQB1f7XG04MzHg75CUVqJMvTobtQ+9/W+aKiRltFqvUWSOg+wU g4UrtHjYVmlJr2i2r4/JSSh3vZQXZ7Q9+OXnplcv3mO1JfZ2jEDoF0o9b6azFE3wM61ed6ltXelJ P5L2M0/5qT7c5hA/8gtJlXK6hgwZ/nKdEEjp83kp4zzkeAci7WfKPGkvJwqN9UMJr5riU9J+JW2J i41ztSa/tXEwVxWkfL/2czPT1+czHpHyNTmlaj2mwkOuk3a7B+zqm4FA1BBN2Ns3LTKghPjXRqI3 OKcmV51oDn8ST8Um+oiyIO5adnCQD5ul02O2N8ozrveE/r8VVv/Krm1gDzjw1DPm29d+9hhi84XD nKyCv3LK9zi/9iczA4maYhAjwLP61Fhri+63DLiC2Cet2xaN2pXZw6FGxfl+hGWekZe1ySqVPmSh grSkm10UfCQq/c42B53+SuO8h/ZYa4aTpLzuORUedIq9Ja20WJvX/NCzXnKSCW6yyXTHG+F6Je7S Y4lSs3zE9kK3ufNv3pqMUMExLvC4hCd8xSRZT1mlwwrXyqv0e41Wm+pU41xtqe8L3aPPT60wycbB oHrCAQLRNdETtvcpBaPdrlWNeY7R4QGnyAmU2TbJd4pfKHGWz5k0jDv+57Or3zhja+voZH0xdKbA aDuKXDQg3TjWHAc41lzdlpmi3e1utfFvzdb/ldq9URzogaS8xRb7gYnmWmSRXYbpBIfeNJIaHlJN TnX/zGRNMSgGEtJKlNqo1notMalqsPNLSOjRqV2rdv22tcjhMcslY6RnvCRSbpmNFviElIISfe6U IJEuHv2BjlRp2QPTi3p9RGC15yXd7zw7yHjYRi+4Vt4ftZpvrF9qdqQ5VnrVMpOt16jSpU4zQiRw nCPd+zdk5nMo9TtbfdMWkTtt8T27er8r7e88ezrBoZaKrPCShRYo82WX+YgfmqF2kHCaQLU5jSvG J/uLOePi97VFuY0uk/eUXgXL7CTvjuJG5ycU6q6ecaev+ZjU25jkg8+q4IPGjT5p3aYpqb7CdXFd +JrDo/sjec1qlEvosbud1RlpJ9M1/y1rmf8L/HgU+9UlFdS730X2M9eHXeURNbqHGOKDenqhoqQG R7lfSjhIaipVpsZrajTKDx2Fpfo1q/e6N6y2TpPIXO93uLwissZ61IsiFV7S4AjnSIpUaHIHGgi+ MaWmf9eqn6kY/5xvC+U9rcITzrCDjMds8pRrFdyl2WT7+Z1mh9vRg1Z5yrnut1aJn/uscgWRfnz6 7w6ae1V40mdM8SnT7Oqz7rHZR8230Fafx452M89NMnbRI6GoXaX9VGkd8IkJFE00E4mCgrEiSUux 3gx5Fdq86g86PSStzig1oXBG0qYrPulIr8SApbefLyl5+7l36g41hWxihM3esNyOfjRQLedtsdxS T3lQ1iT9pput6m+VNP9XpIQo7gEHDHkTNrjDBd7rAIc61Xfd4zXt8XEYSHrN4V6QVlwTpeI6ites tE6bMD4KS7SpVTtEa25VsK19HWuP2Kqn1Bj3WooKi211vOPkBUZa6V50uybxQOHXmdz4P91nxrNO 02+sO5R5xHvtKmG9NZa4Qt4dclL28ycd5tnB3Vqtc4VrLTPCzxwtJyEVr0G3fQc3pUull31QRwyK 6nOmfjN9RpV9nCFtlqkO9Gk5HzfXBeaHQGkAACAASURBVEJn6DcDVYPsDWaGcTk0RiRjjaSN9hWq FCh3qjEWuN7LDnGXddHXixJfTh7xoP18SVes8fzWK61gvj9U77omHJ1+1Ovu9TU/HwzAnM1e8YqV HlBhtEq7mvq3ouf/Vro+GlZXD7wlG230DFLKVJpopqmqjfIFdZLypOOlS7s11tkcKz+mZPRo1qpL XzwhLzXKFLPtJikf81Ky/uANgXJLNDvaexUkjPKUJRKKXiaYNT388bMV/f2dKuwl5W4sM8EJ8ia5 RcJEFTZIWOpS63Xrt6+HdEk5133uNManHDMkJDhw7+u8EzZup0nqXWiUi53mafv5rqQvOsXDDna6 6+3jDjv5k0NkzfWShabb2/PDf8jsImEgUiaS1iKl00K8LmGrx41W5RX/z632V+kJVxRPMSWhe/23 J9/nOw6L54lvjYOC7f1h+lGXv3xR+rD8TxSteZM50meTZUoVFBwtMstsdZr+3ZnqL4VXMR4pDTDF O2y02O2+7QzHqxvcgmSVKbfJ62o1DIVUSSwi1aJLQZmJ5trLoY6xVyw1mlQu4T5vCJRZrsH+3q8g MMrjXpaQ9KLpBMU1vVV1zZVzX9vjEkV91inY4jx5FW6W8bQLlHrMk75hjKfd73QNeoQ+5GnnSZjo i6LY9Hjwzt/8Dm9mq1LLjXWhV+zuLLPMcI4O+1ngAGfgVBkPSTtZpZskHazUOFuUoiKN6ZOywtKB d1BSv5Sickkvy8p4SkraHKEPm6Ddj31YWmMompy8eqmjnGNTzNV/+/Rjgt9ffEBt/oF0QRgno3hb 0qPeUhus9jujzLST8X8dXvzvdUEYwDYUhkk5vSk/Fn/Acp1WeEOdzXqGslS7LVp0yMmYaK7dLXKI vY2Mf1hKhT4PqhUotdp6850qjyqLLZVU4kUlPklY4qGqUdu99tw+iirdJetFH5SVtF6jRrvI2azU VAW3aHatMk960ika3CAhZZGqIYgGoZQNXnqHWNseoRrj7Ga1c/U4zln29HO3muFABzpTjy9Y6FM6 vdeBLtHjvyyID8AijJd9IjovKLVl0E5amVBWg3Y7Wmobv/IJtw5LRtf7qYujw4vnBYqvXWuRX0n+ 2bIlKTTJ3TMPrs3PfLukaajDGq+qt8rDxjvUDKP+05nqb9VebzkzVnndKus06x+apfdo1qZbQZnJ 5lhgT7sarRDL5mSM0OxhawSy1llrqpPkREpt8pJAuZf1ONEIteHk8tXjRrRuHH8aavWrV+VQobH+ pNRyZ0t5UJ3zZbWpkZTyuO8Z5TZPS+h38ltuXBEX2xhPGf/+VZDwRQfY296+7RItPmon5S40znsd 5Cs2WOAw9xunoFy9tElxBwnGyu5OME5N/Nt7jRKqElnhEDsIpWLwzh1CdzjTKU6wk2vVRFujecnv r3GS0zT8mZ50QtEIv555ZE2+OvVnyaDdKivUe9mztnei0X/NZfJd59dSY41N2uJ+LyWjX5NWXfKy JtrePAuNiwMqkpA1Up3HbZCQtUmdEY41Wiit3FNySizX7CC7mx6Uu3Baz6i6aE85FR5XpsZpCko9 oKjOznLGKapDmbSMonttK3S9VRgvbc7QqC1UkHarm+LD6J1ty8vwTeOdYY65LvIb+/iY9zjLSAfa 1U1m6fOslDNN9E2Bj6Bz8HGNVdWOyVbHfpJFI0VWSetQbZVsLK0WCWXsZRzYzViP+aEvFy9MStTc 7EB3xXImb81WI9xe/cGaQvXbs1W/ZnVWqveSZx3h4HgN++4Pqo2adcdgiIHyfLMWnfLSxplmlnkx 2SeMy/WRXvWsxjikVks53I6KEqo8qllaiw3m+LACQbdVVf3FhqUnz4i0K1hjku1RbqVSdc7GvbIm CD2p1CJZ6/TIOEa9SI9QKwpCBZGUXzubf8B/fOApbvQpBYc5x84iZ+n2Cfs61xiHGeMlJ5vtXC2m ea9bYxZpdqCSy6ocYEe3SMhLCFRitVKLFGRjjb5AIOe3FpiEu0UadXhJwbpiTbE6WbvKh5yjVfIt +SohUuHW6hNr8rHP6Zu1VVGDWjVWWeIFXzTjL0fQuy6oOuTjIdeAkWGD5lgwbIwpZtohpgsOgIdL jbTYElsllNpoNQ5ysIJI1gZvSChTo9wH4+PjQWOP6U1OeDEj43Fpax2lKOtBgTrTRcq9rsGhAuu0 GKtfhRleVWeVMu36/XgIy9XnKqfqfIfuT29OrFhrZ192uXYfdK59XeEVH7WXTyuzg2cVHW1vHQ7S 4yWjHRgrQQRQUsTEmJqWkVCGJg2asJcyXTHGMWWJvliu62JJ97vAp0QCdcWZCWHtdfb1QOxq82ZM hEr8vPo0hT/TRuy3VY031HnJ876j8i/hd99NQRUMArYS8aCzJQ6pPsk4S82RHoZHLzXC85Zpk5C1 Qa3Ifo6TF0kb5QX9MlbocJgpQqVoEk7qdMS0cHqVzTIKdhOpUiuj3lHxuL/OImkdOhGZZLz7rYtP B/7HhZ72uO/ZzwX6/yEf4MHBUJttbW+eL/m6Rh+10Ot+7mR7ONsOJjhTmbyL9NrPvn5su+EzoNIA 26vQIlQqJYmMUc53h4Os1C0QShihVcFWgUqXK7rWxPgesyYUzUzXrXSc/9YdS82+GVYpP3OGcNgB NzBe6LLFWq/a4Amv+Py/f071j2IdAtEgbiqy0VZtehSU2sY025urYliWyqqy2GtaJZRoskbBPo4Z Wig/o0FSvw12dLjcQAGQSIXrqgK7B5EWkXWmKEjYIK9Ev50VPCETNwWhPgVMUWe1UQY5sb2udK1I v+AfcgB+88rKSzjds3qVOd8hDtXuYdf4LC5wtYJ6n1bibh/0pC7jh541sgF2MNoqC1UqGKixmlQo Nd4z+mJYe1ZBShfKhxCzbxL/10by0xJya7817RE/tsswnemkSOQ6oRulh8rFwanVZjmB8V6xoxP9 8u1vVeJdk6PmeI9IKiUto88mjbbqVjTSDDvZ1e7DQiopq9ISK2wVSOtWp9cCR8rEPJhOy0VK1Ai8 Lx4uPIBSzSMnyAUpSyU1miWUUiewyVhFGeskTRQqQ04eUxWV2Dyspk3q0x/7zP1zoA5uE5rv43a2 i04XGuVcE/zKJ+yjy87+x1bjrcLnjVSBdPxHIcB1xqrBGEVbMVJa0TpFG4ekwRLEjcfefjk0rA2G IWjXh8JpyXUvOMSP3kL4DUQSrnWi/NvK8aI+bdao1eZ2bXaJU9+78Pjb5FxzFf47kdBik0atukXG mmWB95gb7xcG1p0lyqyySrNASkKddtUOjvXpMkZ5Vpukdo0WmC2UscYa1IiiifKJUuukdJmOtC0S WkwXKtVvg3kiXYKYXzhCaLQVxI9lcFFQ/KdlUrNo9DHfsd5MHzfBns7R6GxpBbv5rtkWuNGBtnOp DULZ4cdKbxLlMtYKTFTQLKHFSZbbLNQ7VOjk4i1ZUmiVlW57iyXiACh7U7SxODWwdc1ZTtQoNXQM JkQybnKk/LBJr3gY2mytLfo8KDT6rSXluyOoIiltXvMDuDDYpEmbXknbmG1nC02IB/JvkrG2WqNJ KKHEWi1G2EO1okhalWesFchaI+VABYERFkO03qiWjrBtaaUuaTlTRTLaJHWYLlKGFrOwZWhN1osJ 1vNPB9HbryaESlV4yDOK9vZZe/myNmf7H1Nt73ZnGC/wGV+x0TbKvemgIteHMTIasJ2iLixT0KAj PviCeBtcLsB69HrBSUOs7WQcVgN/b4iYnqy9034eGeaSnRDKutkBcm9b64T6dWrTr2Dl212e3i2Z qihwpe199/RQqlmHnFLbmWu+haqGRDXEkJgS6zXGaprtGhXsYPeYm1pqQ6wa1ajFbNVCaWs1SaHP 9MoNif6SmuZQLl4El+iV1GcqNkvoMY54CdKNvBKj9fKvdJnBHLPsIOUcN9riY+a5QpP5zvIxWTk7 OcdNGGdM/Nszegl1PoPJRuqXkBXpkdQl0hHn0CiWBOs0SVapqfHsPR1j/FPDrAQGyqh1kXBmsmaV w12uGPu/DoTVGHdY9JZtYSRSiGsDCrrenUEVCRRc5XM3nPC+/O9TCWNUm2+BBdJvCakBSvt6W3SK JKQ16jbSHOWx3FiVpdokZa3HwlgD5o2BGU80RpU35LL1Aq2xOtSAdUvBtmhHFOem0EjrBQpGKEgP HX//miLyBO833V72dbyicyz3IYvcYC/7et0RPqfV7QYE2sSIqpQeNml5DgtMlZHQj/ONHdKPGKyy iwLj9Qv0GSWp0yeVycrKxMGVHGZCHamNaorVCcXarzpR/dAxmFA0zu12Ufwr+vbRu3ekEOE2DX5y 354nFO5NzLWLheYOAQzfDKmsTg226ovNodoVTDQjnq+XWG6DQFq9VlPsKpRQZku8/5wgiKhPbRXo VhHbqw8UEOXxDSmxESMwTY2kvO2ERvK20uKfv1JYYqKZcvrNNM+BHnOpvXzReU71kjITrddsZ4wT xsdaHtbrXkPUbydVkooCTfIqBcaqFBgpE1NpchqkFPUo9SsVKuJRQ6kS6TioBjUioDYUzUxedbcD PBzH5oBi2US/Nkf+ncXLuymoUja70kg331n9w/Di1C62GyI4DFIg0kqwSZPOeOrepkfaRJNjfH/W Or0SkhqEdlQiktSsS0I7wRjZPuon9wvklYiGbdVyGCM02nIJnUbJS1kltIfIdoO917/gymBnT1ui Xo9p9tdrlDZsdpWCc33DyToVPGmrvEKMMwmhXvcDifVRr5uN1qAgtEmftKS5tpO0k+0klPmi0dpt NkG/FVqttsSrVlhlnQ5p6SEz6sGT4BeuiL5dPD999RrH+rYwbm+Timb6jdl/Bev+Lh5+hrjVcrPc eE7V2sJOieKwkAqGgHqbbLE1FiRN6pBTYcJQXzhQBKds0m6sufGR2CAvoQdlnl/J2nFBYIhznDbA f2pAJaZZJqXXgXJmultCTsbst63J/jdXAovMt8AsIxWFTnG8q2K8b8IKR3s8/taP6dZrg0EdAG9c Fkq8pmCE0bYIRRrk5CwxyUQNdra9pP3l7OYga33ADaY7z0rbqrXGWvU2aRpy0RnsqkeqFOL7+fMS ek79kg9pjDVCkgrmuNX4wQ/x/5+gStnsx9jP9dPSgmlBNExramCC1WyTJh2xSmNBl4Ixth1yimnW KZC2VcGU2AEyrSWWeSfw5FYatk9tjGTjtcdIgYISKwW6jFaU8gTGqTBRjYxe+8oaoVHZv+Srttvb PCOl48V4+LbvOcEMKSUikfv06VMP8iGWIKgTGaNKq1CkSVHR4zr0+rmtun3BaAs879NeUeLTbrGn Lr/VokmTZi3a5GIp12iIJ98Vf4aLQ9HPU+5yiOelYqmtvF3drPTvc6PeXbu/gsDPLMWHXFFXlJgZ DIKuBnaBeQ0ateqLK6ytuiRNiA+/QEqLnECoU8aUuANI6yBuaAps5amxfb2RKl0SMdKhYLSXJfXZ Q95sv5XS5Sh95rhSoNo4CxT/N/L5Q9e2OExZXC8OKte8mYtLlBhvgTVS9jKCgaNbkoRG6xKEm1Cp J27AeoRCK+SE1opsb7TA/pZrcaY7fMWJUu7XK6dfry5d+odE3Abqqd9oR0pau0bHRooyljnSLdIo Sss53DV/33Th3bZQTmzo8k30+dyMr9UUJaqDxJBuQolNNmvRPQQhbdFrpGlKh/aB7YoSuvWrMCme v2d0iwHeUZ4NsHmyxlEKWtBnrIKp6m0VmiFjjIJHUG68bb2hUYdzTfkXTaqyxD60b0ohDfKHskpl lSqxi+2tsotZUvbQoWSAWL/eGwnCgdekUll8hA3Opnaws7wDTHKWbSx0s9/7gKk+r88Cbwq1Dryk gxbLt/ulvDuUKaq1ygZ9LozkJGx1qvPlJBWlFZzu63+vsnq3BVVY5PcekdXvkurza4tSg1kqa7MG TbqGGBWN2hRNM2fI2i+tXSTQq6jS+Ph/+/QZ9FPMsb4ypHZiIC9ljUC/GSIVKtwlqcM++s3zWxm9 TpNzkEuUavA9s9+2uP9nrm2sdaapQ3ZJg0oRgyEV6tGlIONMD0j6bNxCZAeO+Oc39Xw5dXXUjZxe 42PdakqMkHS0kb6s23u817XmO1ydTzvJwvhxp2RVGm2ciQry8Xj3ROU6rbfES2o1G+FQHx2sc5Ou doINkgqSii5yVjxh+f9JUEVT03U9rpSXEvn+zE+sy09Lp2WU6NSgKYbGDBjoNOoy2k7GDy2Zk3FV 0KeoMp7dJLXE1VRIVKSxpJXXRnakQ1lrBQp2VKrfTIv1K5ora4S02yU0OFS3PX1SRodvovx/+RXT OExW0XCFrcGDr9kmG220SYNeKWt1x/m0KCT0UJ6ooAc92lUriaEvJUbLa5ZXqc8seaUuMdrH7eEX 8Z0oMcq22u3qEk/qjU16IzztZbW2Cky2yIedMMDfGRRd+aP9PC0tlMA1PiT/17PVuw5PVZufkaq5 xy/iruN/pn64MT8hVaonJmX1xkdf2hatQnPsGk/pkvEgdMCgOVIhE4daW0xFLQ68el3Nq1mS2dAf ylovIZQwXdE2St0mqd0++s33Jy1Ck+wtaZHTbTLLJ3X9NRTtOxwmbHC+m9w9dOsHoT4ZGZs12mKL Jps1anKS0TyfX1wbZzXNniwQFuXioIqUSdoGCaM8rt8udvQ5oTOU2MnZ8kPu6GXGm2qu4/3QzbZ3 /ZBL4YsW2NOBjnKys5xmZ7nhB31RwhpHuFlSqCjlBosU/xrG5V0XVNFA3/5VDdJCJW4c/5HuQnmq Pq6mBh30+jTptq3dZOOxZ0o2Xt0EcsPAHgM6wwOZ6tDo68n6XkvhlUyvCg0SIj0WKtNnB8/JKZqt TInxrpGRM8sRCg51pV/7sGnK/mkHuYyCcSYrsdpZwzSUBzvbZlu1ateiRaMmlYrCG1uXPYHuAh5a 3DIz8Uw0MKzs0Sm0RsZkgYTRnhPYV595nrPVPJFIn0HlxdGm2clIv3eZtf7oJKFIiVdsUWq8OQ6y m5FyCm+fyYVSOpzuEgkJOZVuMk3hL4fVuy6oqImqk2vW++84xsrcXH7aU4XdU0cFHfExlpTSpE1g nvkx82ugAW+WI57YZYfyQP9w1cigwEts079ydLNKbZoFckbaUWi0KrdIardIzkIdrlAib7TPY3db XelbWoz/p4BoZdJCN5hrR02u9UdpJUNB1aNVuw6dsQnJVs02KTZGNk55bnBEdkc9QXmswDgYVF0m o0SoXkar9xrlFoFF8hJ+HZfwlSaZLe9aH/OYx5zsHLdLWW2Ldp3ySpUPgYtKjH57Z07kUh/WKiNn hp+r+Msl5rsuqAJJoumphptdE/vbJP1o3zNuLAh648Y7qUuLXhPtEsPmBmjyG7TGjPtwqDAfTvFM DM7NV24T5jMsVyX0qoRQlwNM0G9nL+hSNMMEXfa1yZdsFNjoZPONcbBbfFzDO2Ikv/UqFel2iqWu s8aJsj4g4TO+4udxIz9Np26b9enVrVOrRmkm1++EopQ3LM4SDZh8U5BDhx7bYIJ+Y9wkZbwT/UCk 21HeG1tJp4xzrQ4X+ZLfWOIk37GvIxQ1W69Bs/Yhc8wBZ+iuvzRJTLrD0Wpk5CxyFX8JTpx6l8VU YqYNYUOYCseVWapHWZx6f/KJzNd/eFFS9I0wKa1em5QdzZYXxULtrTbEFPm3sxyjWMhiAK+coy5b u2X7ROHx1B7SVjhEKK/VoW4TGedm5+hwoh/pd5DnfMPBTtJjR3v7iX3U2dszRoli1so7m031a7Wb U1T7iFIjrdEp7XvGaZHWIXCCGT4nELqTuDN70a5tr42N0+xzhzYcmaotvCxlvMDnPIWsbSw10d5e sqf7rXS4TUINmvGeuOKstMJ3XOxGP9blZF81y0lIec16PfEuIjH0Cib+kgt9JJTytENd72C9TrfW N4a7CLz7giqQUGw0foT9He0gE2JQwIChyTVfGXH5FRcnLkpcHW60RZ8d7KUQ8/7KdFhtgw4DjiVh jKZ5c1cd/zs4P9w5VbdxxvO2L486vazKJhtsq6hPub09Zr4/2Wy8Nkf7nQ67WutRr/uY7Wz1CY8q mqbHKj0m2fwOVjeBhM12cIMVXrBYRsZ63TGkZrS5lviAStdKu0qtXZTJi2JB+uu2/0MiHeXTCu56 rwdVeEO/nWIjgUC1Gk84QrdqNQ7EMhWqjDNNdzzeTJhljqSLnWShk11nnpP1SXjQUj0CkQ3KbGt2 rGmdj+XF/iysCpLW+IAbnKDgUq/7zdsx1e+WoErGPfOc8cc7yZxhzhLRUOr9xsXTnKf3vOSJxXYT HGiiAjLKtHldfezMOrAPDIZ1V/khTypRpkwODwQn51Lp6E/BoQrqTBQK9VjgeaERfudMOVWO8oAu k42w3Pccbz/t9rCdPznNHca72xh54V+11S43WodeOQcY7xaBfj+RGzZM+IIu28m6Rp3QEUab6D12 jykXP9HvhflNQXkxn/SM338+ofiqwGv+S0JOuYQp+hU0GeMQ47yiV5USR8so+q2iojbnySk6wyEO cJTvmOE4fZJ+6wFZ46R167JMQdpMBaFcXJP+RexbUoeT1fkifmSdF9+arZLvhiMvXkHN813fcsSQ v1YU1+CD0qaR3ezi/mN7fpPaNzzMnrFFR6WtXrUmDqmUjEZNAvPMFEoo97oWSaGN+lXnH40+45pG pxXL01ExCFSaYF4sGUCzFqXqHKGooEq1jTqV2k6TFxXMUzDSCKss9Jr/slWtQF6FlET8ZQb9bap0 yOuyv+vsLmuc7Uz3gPs0GW2swC+d51GvGWesCQ51tFlmG6lHKK/frp6ofWhOTyYfSjjvmZU3JnrD OzXb6ghVNtqqxxhrTXSrY/QYZw+7W6Aafe5WUFD0cZHfajLSaab7vB29T0bG97xkhvkm2sZEKX02 aLKNMXF+u/Jvod8iD2m2v5He4+63stSCd0FIRSLTnO8TyocZX72pq9sqqSo2ZU173snn116VrC8W YkOhRktsGDKfzei0RqMqx9tdQcp4v7JeWr+l+hzu2GBKUBfO+K3jklFSLpjvaEcbF6Pbazylwv0+ aj8FlEq414Yhx6vDHC8vZbMHVPiT9yn1mBesGvaevpm1Koywh68YpYiMlJGWWeFQaRk/UYyhdKdo lJd2v/v1KlMhpU+rCTqX3LlgRNie8KCjLs9/xC+kPO0Ue7hDwVw3u1Kpn1sm4Qq5+Kj/ZexyHik6 RVKvcjmBlE/Zx+dsVOMn0naXHzIPTGO5zaqdaKoiZv69jqrgCDfa1i99dPgGK/iP56iisT7jdBNi DFo6/kztllqp1jr1QtdZEFveJ6115toHpiVFa8MqG72oIT720jIabNYiZ44Tbasoo8SdtspqtlLa 8fY2LbmuOPU4v01HYVBU4lTHm60olNbkXhWeMsoppsejiQq/s1ZSqcVavc9xctLa3aXMM6qdYa0N 1mtQb7M2o00ww3g57UYaaZmNqixyuLSiOzzqujgBD45Dfuc+o+ymT0Egq0xar259ftlVU5GN+gJH XHnfBckriq/72rAasUyPKj+Lpc1XardnPFQZpOX3WOIqpS7WZFdj5Z2sX4PLzbKdfmmjlejVLiep zHLrzfARkxVU//1GvWAfN5jtQle+eQSm/qOFOUWH+IHZIgWBDCK17vOEV226uiuvy6XBx6Kfnegu O8Zev9PcPe0rNd+vTkxLvBK+oDEWRUvrt16LDv1G2M52Mde5R36YNncSwoBHLc7vng4j/YnF9rBD 7IoyViBnitfd7HB7K+hV8AEPWKHHeyx1jy3O1q/CF/yP3Wz1abv7sAOHdJOTsdZbUtYIf9BlmrS8 q2yU9CM558V1XkqVKcbqs8hu9tI2lGuIBJ/8/Zk1C8sL3Sl/ePa+vRLCPrOGmRSU6/Sc9xtng6xK 1W962cQJfw8328cEbaapljTSIXIe8ls7G6Pf9g5SIlLiDS9q0G1HBbXu9lEj/v6cuiDlaUf6te94 1cODYZX6D4ZUJOmbzpeO/Tto8LBfe/jqrrwevc4bkKaNfpY8dPWDx7nfDAUpoYzvVe/gc0s7dk5c HkYxZKRLoxZdcjLGmzSEF80P9SQDpubURFPSW9q2uc3uiSifTHrFI2aYgdAEVTpM1mO929Q6Rrm8 Rgca61ld5hhnmQucakcbneI1z9pfwTc1DxtlBCrMsMh8W+xuT2USntAfNwRn22KTDow03Zi4sUh5 2aNWaBfIKFXRmKh4die6Uzpd/jDBupCvDete+oQm2qBEEodJuW3YmDfwUT8yx8e0OdthOnxAubxa d5lrjIJdLdKhVyRhku38yWo9dtTrNb8fWCj/fbBSQp3D/MrP7WHDQOP9nzr+Ugqmu85hMUc9UOOn fm214KLoG8lBI/DjopyChPvS385/cWd3maEY75/Snvfpbyy+KCn6VpiWj4U8+kRG2sEisxREyvS6 R5uMoqXaHOQkeTMTvWHpVI+anoiiIJDwFafrF6nyqudRaot6rcY43AHy8fDyfhtjdYY1JjrHSJFK azymP65iDMFYuqy1RcJ8B5oV86bHeNJPTbWXhUpEEmq8YLFO41Qrjxe8A8vh6ueXdF5wyIR8Q9ol l196caqukPRJXGbM0G8Jldpqop8oCp2k3lPxpClQbqkZPi5yhoP1OkGZgl4XGWt7OXtbqHOookrK SvidBhntluNQ577zZ5nxWyMs+k/WVCkF89xtppykpAbf9tNYKycQnhjlhyEiS02wg/MT68PJO/q1 2fHGKZTQ5auu+Wbxv1NXF1o0adMlL2G8uRaZpICshHtsklRqtbUm+6xSkZmpRwoHfdfnSqL+ICE0 1dUWyEsb60+WxxbfW9VotaPTVClKqtTsSQ0SsjZ6w7bONE5RQolSJXK69dhqowatIkklctZr0qnU zj4hL+tWeSkpgVAxFhOZZr6JuuXiJW9C7aXnfrk2VQw8773NnW0yznaQEdbaZIKPx4zEEfISbhl6 mEF88GVMssGHha4wU8YntQhlX3dHyAAAIABJREFUXKTfbnrtZb7OYUSYQEqFOo/IKbVWnQp3/GPN 1h3Wu1BqgD/9nwipfdxqmj5Z3W7xDRviwUJ0TFSIg2mA41dpghl2NNPkVF1hxmS/spcBkZsB5v89 Pvf91y9MCs4odOiOg2pHi0xUECkx1r1eF8ro95oOx3qfvOqgJyrb1nOmpqJCkFLwXj9GQdZIr1mm SSgpa7NVQoc7Wj5m5pR61Ep5Gb2W67SLg8wdQnoP9lJlIq+o1ToE1slYbZ3zbS+UkJYUxS+PmNrZ rEatWpsUvfHSml3LdXc5ou7JGanVhc+baaTPO9sESa8q+IHv2NH73TJMH0GMO6jQ7ZNe9EcT7GIv HQKhb2uyv07z7alziHL6JqNytHutlFRmhfXu/8d6eC7xvHslgv9ISO3uj8bLS1vtTI/ETEdwKEO+ x6WqjDNZdezRPiNRE1aPdbMjFGLvm1DCBhe79cLC9xO8P8wJjDPXvqbEc6yRlnlRR8wEXG20T9pO UXWyvjjlE26oiLqCgUHAqS6Le8BSld6w3Hp5KaVWWafUQY6J3XzTKm3ytC0SMiJrNOkWqTDeNLuY O5RvUjIxfTOhV4t6L+i2XI/tbCOpW4ut+qWUGWGU0bJyil594o79JtnIxbVfn5m6rvA725hnpMOU +bKN9hd4wwYpe0p5U5Y+jLnc5+jU5QEFZ2lRlLLWjTodoNMkx9oa095blckoxGi8ci0e1Syl3Ct+ 9o/WyGX2tkTLvzuoEkKTPWi2fiV+6XyN8do4vj4QHyRZZSqMMsEUY4fopNXJNcXpWT/yX0Mz9wEs zH0u/PjKnyYEhxUZY459VBuYZFVo9Zx6RWlZr2iwR/CpqN/MAKX+6MBMmEsMhNXZvhBLPiaVKLfF S9bKSymzSr3QLg6Jf3Iga6Rllg/pvCdltNtks34zHGTPt2SvwXufUeVu9UOBMNxdNWukCWbpaftg eXOqLSh5sP993wsfkzDLeH3O0e52fEiTy7zXsS5wkoZBCCKK8goy+p3iF3YzV15S2u89IG1fnUY5 zRaBvKdt1C1tjPmmKcbYhOcs0S2lzHn/zIgoKRf8mzs+Sv3ewQq43GVxtTmM4/pFWeVKlapQZbQJ gmFsk4QZA+akJ/pvO8WBNcBMa/NdPzi68/dJwYmF2fYxO27vy2Q963UdEjLarVBwrEMUzEy1FkYd 5u6ghChISCj4hC/KxKjMhLRybRZbIycpq8kabUbbwyEq4inTgOp7m1rrbNEXT0ZW2ixrezNNUCkj ktOvILDYaXFeSA2zlQ4VDFSSdDqr4bkJjN64df8ja+9JXB5m5WJIysBd+C/9xrrZKJs8bVb8MzLK lcrJO8kvnO96R0tr9JRVao2zmy4jnKFBpNstXtcfv5lj7KzaLlKq9HjZG3qlfPkff77Bv7/7Sym4 xNfkJX3KDW/NUQPXrcqVK1emQukwf/UI1Qk2h+UqM2a6xIdicOsgljrhJZf646HRgwl+Fy6MBftL VNpkiXq5uFxfY4LTTFFUneosVP4/n0kVC8nBafghTrTQ2DiUAyllMl6wUlscQqts0muyveyrdAiQ O6iZ9bhleqWVWWWLHoVh8JuklNEmqLDSe8wyb9i3G3jRt3qq6eubtsxHh/d/94nPJy8vRlLG2M62 yjVarOAR1wnc4jQvWOqNIfX5Ecbrl5dU6lN+bILn1eqRsK2ddat0hkahjGu8qkSlKqVolLHAERLK VNrsNav1+Or/Inf8O0NqX/eq0OdTbhmmLjLsWqGSYaSANy1uqwMaogkTneTDdh22cI6GarKEyB9d esxLvwt+GX0kWBOFIimlqiyx3BaRtMhSLfb0STkzgvpoSqmH7JOMisHgXnt7C802z26xfG8kIaNc uxfV6peU0WetRv1GmKbaTDsMEa7SqrzuGd2SMtI6dOuPO8EqJXIxbikppVWNDmVGK1XUqU3+hZXR +j2SxWLOCd+55wuJh8JtTJbQLx/T0MZa7HFbrDPVZte5121xSJUbZRuRnArtDvcbm2yRUKLKQl2y TtGvKONGz6iwrW1VKSgqKkqbbYGUUiU2W67GBe/6oApESt3lMP3O9lOZIfDAW651b3FKHvhXdSAh rI+mzPIxH4mZUmGM/BgMrAHBrkBSj9t8/4aVi+yQENQUB6AxBUu8oV1CVoNVko5xsLyZyXXFqfMT D4TbpKN8wIAFdrUpSk0y30KThiqjgbBY4VVbhLE07ybNOvUJjTDTXhbEldwIb3hRa+wBPNyIZ8BI ICnUKYyXS1u16ZdUcfuK3f5YnSwWc05v/eWo9Np8OJTHDH3ZhCpX+YT7bdHoKscKY5bMGBPwQd/1 WeU+Ky8na2ej9eAYVXIy7vAnZaaaGmO2Bl/erw4alIWitdFyRw4X3oveuVbuvy+okoqOdRe+5rI/ B3YNXnVDn3zw7+oEa8NpE13oY0YxNC6lqEutVx1q0pC04ADos9OvXLNuWdGMJGuKJco1eUWtfinl XrXJeEfaS8GMVF1hxlGp/6+7O4+yq67yBf455w41D0mqUmQegcgYQLABGUSZxBZa2lZwaMUBWQ9a tHHE0K8DyKSg0jYPW21aWhBtB5BJWnECQRsFAiQhSWWeqiqpeb73nPP+uKdu3QIU3vMtHvTNyrCy 6lbde+4++7f3d3/39/vDYjablCCWWsP2t79IwTT7OdhyVeXjMKNWrf/yrD1lFeWsER069ap1orcZ F8toMOoJW/VVyGFnzbDYEjOE+m3VriNd1gg7i7947K13VQdJ0uc9m+5elG0vTijedeste4SV2oQB BcO6ddhpqy5Fec1mmi0SON9dbpURKrrJR7xe6EgHGZb1oB/IWGShsTSkVpSoFcnKaNSHBHLmlMq9 EqUrrvgMA5VR/grIVIGfOdHtzk3BshdmqE95ypJQuLm4sM57fdJCiUI6Th+zxkMe8YT1nyxce6Ab nCwWp9zZJA2s77jJkxvipYGMZCha7wnbJfLGrLVXq+O9WcGicEO89CJfaU36g7GU+jtinuPlUgGQ fexnf8vUTtEcbbBOu136UxJzVrWNNou83jvTxrRKgz7tOgyKVGmxyELDZcZqYIu1dhv+yOgxj/zl f04Lk3i3d294cGnmiegZe63Xo0uoOgUzErFlWr0/pUaXHMXW6pQzzWyzjdnuErf5hawqXzXmw/7K Esv1y1jrFncEFcZ40cpk4mqvqDYnhQUXmqlWotsee+20xsaUAzmxH/cnMlfwMuap4/zKE96o+0/J +bZXZNwFIbviWce50utTcliAp/zIg1Zd150zpM+1wXnJN2t90AotFVaJpdp50I/9m5+3j+fMD4Ti m5IuoSr92nWrcqgT7Gt+uCFe+hmfb0nGg/70leSNO9Nhesui29PNSa94VD5/S71fp4226FCQUaXL BoMOd44GpaquSo1qA0LVxsr1UVY1nrTN0G+7Hv/52385A1ud3f7YkvDr8WM2qlavVr0FopQoHRiw Qbeir6XF/YBVfm+1RIt5ZhjzNy7QqktOrRt1+Yppzi9BKKVsHl2XxOUUdFm9JfaznwMsNsvMF9xA i3XaZYNH/MYTxtIf/VzHiJc5qLKKrvFJJ/rlHz/6YFtZ36010xNNq3KJS9UoyAgNeNg33XfFYFbW JRkkH45HfSvkzPjOA13vFMoHYZKuZxf8wdfdta2zWmsgFK9MMqoM2qbLqFmO8maLMu3xWVc+9ZkZ yVgwWCb/j1juJLPFOnXrN6woa4YFDnCY2grJyFLm+oNVuoTyhq3RY7m/Mqvs9FSyg5kUxMipMejJ NZ03rD39J6euqsVj3rf5mYWZe6NWbW5KnS2iSrKSUE5eh/PLE8AOv/Abo2ZarM64d/gf5tqq1q0G zQrTuzTalvzI/fL2c029ZnMc5DUOsEzLlK2zqGJfJC5XrNm0uBi20S/9p9/pSu+r5zkTBC9jkf4b j7rgT4cUvbKyhk3PbIiWLvI1b0pB7mHf9rWVj10WXJlcGgrFl8QDho0rKrozEJwW3x94j085oAwx SGHtAFv90N0e7Rl82FtKCTy+Lt6uQ6+s5a4IhO3Rkk+4KpeZrgPk5AzjzQ4yTVZWvz59Bg0blzHb gZZbWi52Azn1dnvETuQNWW3Awd5sSQXwMOn/nFffuebm33Tf+7ZHjhnI4DYXdPW3ZrZGBYkqV9vk QG3G0jukzvuF1ntE7MyKHaGs+/1Mj1n285mgzKUlHkh6nO+fEFqUMcdc8+xvmUWWpO4ikysNyoBy UmFE9ceYn10e9FO/tKHihaRFTfCyHX4nuMmJOl/MFG+dPgNOyt1ReMcx/s1SBTlFd/iiVZdHKzKS a+O8bnsMpGvbE93LA4Hg9Pi+6T7oYrMkack+4d+cERixxo/90KqrkoKMSzOI35fsETnYtYHMxuLi 8/yzqsakP1AGFHvMd7Slqk2IhdBrr259iqbb1wEOLiuT5jTo8LCdQlX2WG/IQU6zf3kFKkh5DPW3 79hx+6yfnPW7OvS6wo39441hV1xQTHvIu/1Yk7na5Jxlp9llMdmkolTNmheU4fl4ZfKQk415i+WB rOkW29diyyzSanoFTWqSrD3R24UVK3uJEXts12XAgJH0f3Ma1KtXZ7ZF2Gmjn7nPWsOThNfgZTv8 zjPdF15cy/57+n0g/EJ8yeluNUNBzpM+t/LuwIqQa+IsOu3RZyydr00cAhl3B0LJB+JvzPVZf122 GJ68FzNpdftr9/qVtVcOXhpcn/T5x4AzkkO90Ruzm4qLTnWzBflkctowTdGAQx2pTZVJHfIcdujQ p6DJEoc5Ni2n8xpt9LvUMafDeuNO8Nfp+KBENGn8xv3V/3rQAweNZSTu96lrn9pYlUnePD5Lm7xY bCTVnH5UpN5Rzn5OulgaCCSbkqxfuFeveQ700UCjGdostX8aTs1TtjtLYqBBmdIwNQYK9tqt3dPW WGWrkResfkuW3U3mWmRfszTots4qW+w1/vLVVIEzrNH+4o4bX3BJZmV02dt9U7WsYde44YqBz2W5 ppiR1W+vHv3GprjpTkgN5d0YCsU3x+e/xtud4TXqptx9k/fjqFUe9ku/vWF3ly32uj+13t06Nn+R m5waxNMNhyPpVkyrTsOOdahZ6tKByiQ9sGTTlLOvox2dIvl5DTb5rc6UprvVkd4jL5HIiVz14J1/ 0VmLTf7R7aeP35cVvTt5n0NTH/vNmlQboFRiT2jtJxLJhmQyJ2QsDLSZZ5a59rXIHLO1VdRIcQV3 cLKFyUyh2m22QbvV1ttmy1tHEif6G/MmCvtgSiGTlKutycd0C+WN2aFL8nIFVU6jvS/BD5bsyuJl b3CXejzrwqt/+ulAeF2UERrUq0+/YeOoUqtGtbysrKwq1ar9XSD8UVSrxnFZ+/mo96U6HVN7mTjt JAt2ecrDHvKUgTOjhZb4u2BV7pCMS3xWdU2SNZA+t1arvQYd7nUOM1tkj71G0+qoYJsOQ+os9wbz 07F0Tr1Nfq1PtW3WOcU7jNrW+0jx+1V/aKDFnm+57PQt94V8Lm52trwaVYqawnJOIO6Nq/2Hoycy VAngn2mJBRZaYqFW9eqm+MhE5TCcnFmHU2wKh+32tDWe8Yzd+laOlug5lwTlcWTyonDUxPePKuuq ///bNM+pvi6PVix3t1lCd/vQDbs/lhFfl4waMWzQYFpH5TRq0qRenSo5OTnvDmRRfCJZ3uwIpzve /uqft5Ydl+/4uNxiJwJb/T63uvC4TbZ/qfPiYHVywJGucMrUl1er0W5wmHc6HJ12G0rZUgO26zSq 1WGOMSetofJa3WmDKs/s2Zp93cDW6ttb88Y1xFW/2nP1qT/5SSBXPsWV51PxpuTzlhkXi62o06xR szYLLDbHPPPNfJ5oQZxOciZJ6qWwnMxK/TrstMFq6z1r87rxrEFdtuv0iYkFnORDyXaNznLO/xkK 6eUt1PGSslQg0egBr8ONPm1E9u8LRePG0l8l8ck607WYplmTOrXyjimxHWxL5u3nvU52yIRG2JSL HKddzWRVkU5OgjDMlpRh8gPFjdEGa2yx2hanVX8sOjBbrlNLFVZdiqBzvGM0KxgWqkqdv3bYa0yz 13it5YoiBQX3eqhrw9iG1mJVkCQBHnWDu04fvS/YrJhsc5PlXusIeYFhM+u0malNmzZztJmRBlVj xcyzUuDKn+jbxm2z0RbtNtihy45tI0UFsWWZCWpk6RZbmYQyquywQdFpLnoVDJRfWpf4FRfhivNX 3BzyzrhEuJ0wtq1Wr9EMrVpMMy01ApoXCLbG8/OO8GFv01jOQ5mKdjlTLkULatMPJazIY0koGxQn S4VEpN9aI47S8EIvdpp8Cj2wWI0GzerVqjOiR58htJkrp92z2icueCHZ4xFf9sjGwuJq9TLyatWb boZp2swy2xwz1cvLP2/ZNy4f5VPz0dRAGjFor83WarfeBl1G28cTgX3sLoELpQF80p1E+nTZYbe+ lJqWM2q1bsemSxav7qDKKjrdXbKu+JsV3w05PZ4AT/Kq1WnUrFmj6VrM0CSRmB/IiDYli05xoVPl U/AuRY7TVqt0oddaZ61V+pzuZMtSpf2owiohIEiCIChH4os9ajTKGdb9ol85Tb1eicEuj3pc1lwz 1KvXqDHln3hBJHtivj5xTE9iElMNHvt16bBdu3ZbbbNl7+iQgu94j6xRi8NJRmB7MiGCtk2Ngj5d uvQbV1rIrbXKDvuWrIJe1UFVoqPe40Q3vuXv7g4lpyW5dAjSZJomjRo1q1OvqcyyWhQKNkaL97fS manSflDOToFQIrDTr/zab7V39NboNT/4WvLhZssc6w2OqfAsj1OLsTAIptp0vtRHrWJ5JSySkRWX QU9pF5nEo+Gf+I5JBQA52am9gFyPon47bLXDdptt06VX91UjRYkGyxxjVFsgkPQlA8bLCu3SwV3J 3/U/talRMKA3JegEQtW2atfotld9UGVE3u1W33OOmPckjRo1aNKsRYtpaTNeKb+6ONMeLal3vk9r STklE51NqXLa7tfu8dPte0pU3+by3X1FFOOywBzHOsxyi7VNiFyWwysoJa7/9281L2skSZLn4Ggq jrbweSE0ZFC/vbbaYrsdttip3/hfxlXp6dli3CeDCSWlobjXbca8zcx0fB2kd1mfdTbZo9673KZO g5yCEWOpJGMor9uzYne+6oMqFHtG7PVn9N2T+XTUptUM001TUzEQn/xzSSDcEC3d341OTo1Ygoqj b8gvfN8Du3aEQq1Byr7zH0mnfgUrSs11tDIpXerPzrSvRZba1wILzP4jYnDxlJfw4tfwhb8qeA72 4wWyULdue/XYo0uHTt26devU254842ntOozLuC8oB2B6v61MMmY53EL9vi3wPwwaS+uA0uGWiH1K r487yL9K5OUFaeVaah7zhqwx7J7/6zrmlZOn3qLNGWf3fT9zQ7TQXG0peadYcYCUOValkDrHl1Jj i0zFnK/bN93i2b3FwPQMw9GepLu4R5c9tqaiP5engOCK0keSXN2Z6xx9uMNXAjUatZhlvjnmmm2+ 6WpUyciWSYF//iNKJ8WjRgzo0ZsqMu7WUd6KHTXSEf+LRE7OqHcJLAiXVBCoz0jOSvJJVVynSYsg FdvIaTBdQaxgn4q5Q1Ju9HaZo989nhGKjKfOIPGU9Yw/r5J5ZTxyCv7DRp+UuSXaz/wKLwTPe7NL go3J4sCnXSEs+9Al6dj4O24e3hirD4TijmTEoO5UnnWCLx5OQtPpsXBpOAHcnRWPV/A5Aj/JaDBN c8XvejWpx1m1Knm5iSL/ORViUVEhxULGjRoxYtSoAX369etP/x7ZXKzxDYm/dYvfu86vDFvvYpGl 4RQEKHk4WW2tbfpTxYZc2sJMM9NYivI3O8Cxeo2IPetYQwrlbqR0/w75J1stM9toGkqVZVyoWpd1 Ej96VWeqUMFSg65DfJT6NDslFUBMUG555gWCxXzZRYqS1IA9ENjkZrev2npIUJsRiB6JIquNGdRn oCKgsqk7elT2OwhcHecMx7t9NfhRZV+VSE6Pwt6gtwKTTLvRBs0aXBPKy1cclsGUoBpX7I92+q2t AvUelvV5ES5xhPcomqHHrRamB+KlAfwwzURfJpFsiCe+XZUez+rQa7RsWjzJRp1YEclqso/bHC8Q aErZnZNgVkmvuF9G7gWU5SZkegeNTSExvDqPP2b6ti7h9jgq22tMzgImTFqzppf+42bnpaS9Uluz 0/Vuvauz4JBQcksUY41YpGDUWCp5XZrU9etJScUz5Mp1ROn3OcmwQhSplHS8J5gCLwYVdVVyQZwf zY6Gqk03z1IzKl576Ts0BlOfe3v67B8lK9J/XZ+8N/mH5HHfd6rTfN1sJ/ueQxxtT/pj7ha421ft Kfdok1huXN74KOWcGjPN1+h2m3zSrDR7lZ4Rpprx7YbSxrjy7UxMEvM69Cia/SoPqhjtBhEXpyyP B+lwNZNu+taUGpivOE9BNp0p97vFtTfuuCh4a8i1cWxnRQ0WV7AY8nqt02ssNTnqNU9VKlGhwvo1 mHIPn54EgiQQVoDwpVD8SXDTSygfNsQZNbLutEOdByyyy5f9wLn+2Swn4wH3ONc6xxnGm3zfz5zp fkemV2GdRY6xV7+R9NjLlPNPlHJI43S412SuSORstTa7xsGe8sVywEQyBmwwplqhQlKkMqS67dSn 1qL/BpmqYyraF5Rl67NycsZLarvhHdE7rnaBWFYiK/YD/3D50yuCi4KViUTJFGhKozXhqNBrjS6R anmRcX3GxBbJlWevoaBifjO10w/TBnOifCqKnZJMLLRn1GrSZrZ9tKTOoJPHZWRI3jvcaaNl1rpY 5J0KBmxysjZt7nZG6knxqHMMOkHOUeXQPtax+tM96Lxa4xJjaY6KUrZE6arltJpv2AX29wltrlfr X/y96+XEOrVJPK5dJBSlQTWZqUM5Q3baq2jpi0me/cmu6xX2uCjNGhNFaI28XrttsdXJ2X+Kzntf qfKSyHjah1deflLnilBweTJZdU0QkjNpMVujy7PWyzjSGx1hgWY5BUPGJRplhUKjhoykfKg/3sEk z0mxpTXzgkLalI8ZTlltRTVlCmYJwS7aZJqNjjBTos7Jvu/HtrvII06yyv0anKrF75zrVq9JP5zA fJc53Gp3OEDsSMcJzbcjbTMyajSndPF6i+1jWI9W33W7fbQ5yNk+qNdqBwoV3WujQI26Mito8sYb s0OnMXO81uv+uObnqyZTVWSXiZCqMmq7br0GDPpg5urihYe7TqIgb9R1rrmy99IMV0UqypZJBZRQ aNhuO/RZ6EKHlGurIU952lq9OoVmqzFm0EjZVcpzQIykTI8MTXLbwjQXxemBmZUXio2plldlWJts Oazi1No7SM0bAwXjIoEfWy7nRFf7dx/TYIMktbedeFdXutVfudtJfur1qnxeTqMhYxX4ElRp9hk7 3OJnBi31K99wvsO0+i+v06/aoK1iderkJamNwcRtnLVbr1GNljn4z3BhfcUFVaZspRjbokN3uuF7 SbAy+nStr2pRkPekj1/z4KeCSzNfjKbsG6V7wiVlglFDevVodpFDUn+E0gdV7S/M0ehxXcYNpn7q Q0bLOybJc/CBiUM5Kv+sqfIaUfnjjdO+ctywQdMqvCcmZGqGSPeI7/BWbd7ge27zfm/0oBqhcTmZ ChPwh3xXvXF/K+MU35J1k4zPaNJrTKRgPJWcz6i2xUn2ON4JHlOw0Nf8L7O0iB2k06ABNZo1aVBd 8W5KdIYRoxItFqVy4v9Ngiqf5qhddtplj6EJdbmMoo/7C5HQl6z40uDFGcllUZdC+iEmU0DSUt83 alyjj5uhIKMhVWkqVTpzvF2L39pil4xMeW19aqsXlhGGiT3leArIEZT3K0santXqNKmW9Xwb7xoZ RXnbUwQ7cRZ2q7LQeoOGvEmjYVTZYzwNq3FHWe8SO3T6iBMcZV+3yrjcja7yQUVjxitICwc6S2xQ YD/HucMRAs0Cb9MjMCBSbZrpahXT2eTkYV5UlNVo+otvjL6agqpOXo92u1L77dJbuyxzRfFzh/oo NvnolfdeGl6cFb0/2VjODs/Fg5NUTrrOF9Nxar3QDKNGyyhY4ERv9AcbDFstShc8VXBJSotVpfJ8 AtcqgeHFdGJdmc+yqjRo05qutYdqp4C3edVG7eM3FjnGmD0Sp3ivD/uC9Xi3XjUGvU6VLvn0nVSJ vMu33etI+xu1v6JzPek2rdb4phGXGEnXv0YN+0Qq7J/1c8f7uf2s8xEDIkWhLokq09Ll1LgCuonL A4M/FxF/xQVVvy57dNlbdiDl0oAcl2pxpws/tv3SUHJ2sZA6nVcSipIy+BzKa7HUeSmukxcYSZ2h hst3dVHkYIfKiPT4g+0p+7xkSDnJvp0YY8QKxo0ZTte0ovJPDWVVqTfDXNPKNU48hYCZVW/IMgXf 8jvvdLnEFj9wuOt81oUu1SqRM6KnPN0O5H3AIWq82+G+5WJv16rJXFt0eMxREofZlnaKo3osTIv2 2Axf8D/VGdZbxun2IKveWAXArAzal4abk4XCf5OgekaPXgPGUtSk3zrCndHsE53lc645r3hDRnx6 MpBSeEu/qlXJSERKnMa8GV7j9dimVZAWxS0GNNimyc8daK2TymoCneaY7k16bEuNJkqldjbt7KRj xUTRqEHdunTqTieJQcq0a9CszbTn0F0mgjyDJnsMOtAhVrtGtSOtd7IVDvaM0CwZCd6HL6SBOKrg fMvc4QHPepfrvcE73OREFxg0hrw7jBmWEyjolU/9NxNzfESzwQr+zIi+NGyKFfsQE0h6vxGRQNHw C7JtXrVBtbHM6ynJKT7jG66MZmd9wEUfvPnr4TeD06JYRpMG9erUq02NrDMi42l9McNyWUWJVrfJ e8SIz9ssK+sXnnSUAXsdaIlB44r2UfS4OX7qnAqc6vlc3Ymc02+rzbbqMphKzVRrMkOLmeWjOJky hyodow2a9RkSWGi+eseqgFTxAAACtUlEQVSq8aRlLnaTo33XX5c/kNKN0K/eWn1u85hr1ZrmPIFf O9ewz1iqoKDBMr83pkog1q9bLmW2t9k2hcsX6CwLcz+3ZioJG5X0HsI/o/N7RQZVT1lJpco6W9Sb F2xOtPrKmf/19azolCRvulZtZpimUYNaVak5T2LUiHFVmhVEZulULWvcW2VsEynoU+cQw4Y1uEvO IvuZZdS/q/OUJO15ghecu0+OM2od4GCbbLTLgHGJjEYtWipW4YOK8MjKyxmX06xOlVEdnrYSsTt9 zG5He8jfusW56TNj/Qb12+IpDys6Tr1/MOA6HTZaYI6/F8ra7Sr3aUpfd2JEj1npfmEkkJdJaYOh yFoDslrKt02Qwp+hrG7dRlAt/2cZ+r4CgypOUaphz9olZ4n2JHDmrtFdd4anFWvNMMtcc83WUiGK ViyXwlVIFNLN0Sb9pmtVq6BgWJ++dHUqpyAnss5WDebolLfGa93uIMcZmtIVJVOagIm1t8hcC7Bd jyFjcmZaUD5USjdGKJManOTstleiSpNZphvxqC2GnW3QFfr9s8igv9SHyLiCIYMG3Op4J9jsaN+x wKkSD6t3pUPVCNWo3OQq9agjsuUKM/Ss+eXMf6efG7W/fSgDHaUJYlZip16xOtPtY/5LF6N6deBU WVW22a5XvZkCG7Q62YXBp+KMaWabb2FaMieez4Ob5IlkFO2wy2KhoqJh3QaUpMv69KjVlhbee41K dMh71Gs9bYdTtaUGanF5sb4UKEHaekepLx6zzE6R/KTcT5WkhmqN6tJnNBXPrnegvMiISL3AdRIf 83Ffxb/6kIccoFNRUbHMlTnRiYb8zhbnGpb3Mde70NtkFY3otbPsHTZRuyVpV5pIzPBtF6oyInSL h1L86Vl7HVU+BEtd6wadiqbZxwKHmP7Cci4v8fG/ATWO5muS5kROAAAAAElFTkSuQmCC "
       id="image186"
       x="56.41045"
       y="44.91898" /></g></svg>
